%!PS-Adobe-3.0
%%Creator: PCBNEW
%%CreationDate: Fri Feb 19 18:18:20 2021
%%Title: /home/tijls/Nextcloud/Projects/Amplifier/ampdcprot-1/ampdcprot-1/batch-2020a/gerbers/ampdcprot-1-PTH-drl_map.ps
%%Pages: 1
%%PageOrder: Ascend
%%BoundingBox: 0 0 596 842
%%DocumentMedia: A4 595 842 0 () ()
%%Orientation: Landscape
%%EndComments
%%BeginProlog
/line { newpath moveto lineto stroke } bind def
/cir0 { newpath 0 360 arc stroke } bind def
/cir1 { newpath 0 360 arc gsave fill grestore stroke } bind def
/cir2 { newpath 0 360 arc gsave fill grestore stroke } bind def
/arc0 { newpath arc stroke } bind def
/arc1 { newpath 4 index 4 index moveto arc closepath gsave fill
    grestore stroke } bind def
/arc2 { newpath 4 index 4 index moveto arc closepath gsave fill
    grestore stroke } bind def
/poly0 { stroke } bind def
/poly1 { closepath gsave fill grestore stroke } bind def
/poly2 { closepath gsave fill grestore stroke } bind def
/rect0 { rectstroke } bind def
/rect1 { rectfill } bind def
/rect2 { rectfill } bind def
/linemode0 { 0 setlinecap 0 setlinejoin 0 setlinewidth } bind def
/linemode1 { 1 setlinecap 1 setlinejoin } bind def
/dashedline { [200] 100 setdash } bind def
/solidline { [] 0 setdash } bind def
/phantomshow { moveto
    /KicadFont findfont 0.000001 scalefont setfont
    show } bind def
/textshow { gsave
    findfont exch scalefont setfont concat 1 scale 0 0 moveto show
    } bind def
/reencodefont {
  findfont dup length dict begin
  { 1 index /FID ne
    { def }
    { pop pop } ifelse
  } forall
  /Encoding ISOLatin1Encoding def
  currentdict
  end } bind def
/KicadFont /Helvetica reencodefont definefont pop
/KicadFont-Bold /Helvetica-Bold reencodefont definefont pop
/KicadFont-Oblique /Helvetica-Oblique reencodefont definefont pop
/KicadFont-BoldOblique /Helvetica-BoldOblique reencodefont definefont pop
%%EndProlog
%%Page: 1 1
%%BeginPageSetup
gsave
0.0072 0.0072 scale
linemode1
82680 0 translate 90 rotate
144.617 setlinewidth
%%EndPageSetup
0 0 0 setrgbcolor
56.9359 setlinewidth
newpath
22937 37037.5 moveto
93993 37037.5 lineto
stroke
0 0 0 setrgbcolor
newpath
22937 78714.5 moveto
22937 37037.5 lineto
stroke
0 0 0 setrgbcolor
newpath
93993 78714.5 moveto
22937 78714.5 lineto
stroke
0 0 0 setrgbcolor
newpath
93993 37037.5 moveto
93993 78714.5 lineto
stroke
78.74 setlinewidth
newpath
46366.1 54773 moveto
46764.7 54374.4 lineto
stroke
newpath
46764.7 54773 moveto
46366.1 54374.4 lineto
stroke
newpath
46707.7 57221.2 moveto
47106.3 56822.7 lineto
stroke
newpath
47106.3 57221.2 moveto
46707.7 56822.7 lineto
stroke
newpath
48387.4 54744.5 moveto
48785.9 54346 lineto
stroke
newpath
48785.9 54744.5 moveto
48387.4 54346 lineto
stroke
newpath
49269.9 57790.6 moveto
49668.4 57392 lineto
stroke
newpath
49668.4 57790.6 moveto
49269.9 57392 lineto
stroke
newpath
49725.3 48908.6 moveto
50123.9 48510.1 lineto
stroke
newpath
50123.9 48908.6 moveto
49725.3 48510.1 lineto
stroke
newpath
52458.3 48908.6 moveto
52856.8 48510.1 lineto
stroke
newpath
52856.8 48908.6 moveto
52458.3 48510.1 lineto
stroke
newpath
52458.3 40368.2 moveto
52856.8 39969.7 lineto
stroke
newpath
52856.8 40368.2 moveto
52458.3 39969.7 lineto
stroke
newpath
53824.7 68323.7 moveto
54223.3 67925.2 lineto
stroke
newpath
54223.3 68323.7 moveto
53824.7 67925.2 lineto
stroke
newpath
55077.3 53634.3 moveto
55475.9 53235.7 lineto
stroke
newpath
55475.9 53634.3 moveto
55077.3 53235.7 lineto
stroke
newpath
55646.7 52153.9 moveto
56045.2 51755.4 lineto
stroke
newpath
56045.2 52153.9 moveto
55646.7 51755.4 lineto
stroke
newpath
55646.7 41222.3 moveto
56045.2 40823.7 lineto
stroke
newpath
56045.2 41222.3 moveto
55646.7 40823.7 lineto
stroke
newpath
56159.1 61662.2 moveto
56557.6 61263.7 lineto
stroke
newpath
56557.6 61662.2 moveto
56159.1 61263.7 lineto
stroke
newpath
56927.7 75810.8 moveto
57326.3 75412.2 lineto
stroke
newpath
57326.3 75810.8 moveto
56927.7 75412.2 lineto
stroke
newpath
56956.2 74415.9 moveto
57354.8 74017.3 lineto
stroke
newpath
57354.8 74415.9 moveto
56956.2 74017.3 lineto
stroke
newpath
59689.1 59954.2 moveto
60087.7 59555.6 lineto
stroke
newpath
60087.7 59954.2 moveto
59689.1 59555.6 lineto
stroke
newpath
66065.9 41905.5 moveto
66464.5 41506.9 lineto
stroke
newpath
66464.5 41905.5 moveto
66065.9 41506.9 lineto
stroke
newpath
66122.9 47599.1 moveto
66521.4 47200.5 lineto
stroke
newpath
66521.4 47599.1 moveto
66122.9 47200.5 lineto
stroke
newpath
70791.6 48510.1 moveto
71190.2 48111.5 lineto
stroke
newpath
71190.2 48510.1 moveto
70791.6 48111.5 lineto
stroke
newpath
70791.6 47940.7 moveto
71190.2 47542.1 lineto
stroke
newpath
71190.2 47940.7 moveto
70791.6 47542.1 lineto
stroke
newpath
70791.6 47371.3 moveto
71190.2 46972.8 lineto
stroke
newpath
71190.2 47371.3 moveto
70791.6 46972.8 lineto
stroke
newpath
70791.6 46802 moveto
71190.2 46403.4 lineto
stroke
newpath
71190.2 46802 moveto
70791.6 46403.4 lineto
stroke
newpath
70791.6 46232.6 moveto
71190.2 45834.1 lineto
stroke
newpath
71190.2 46232.6 moveto
70791.6 45834.1 lineto
stroke
newpath
70791.6 45663.3 moveto
71190.2 45264.7 lineto
stroke
newpath
71190.2 45663.3 moveto
70791.6 45264.7 lineto
stroke
newpath
70791.6 45093.9 moveto
71190.2 44695.4 lineto
stroke
newpath
71190.2 45093.9 moveto
70791.6 44695.4 lineto
stroke
newpath
70791.6 44524.5 moveto
71190.2 44126 lineto
stroke
newpath
71190.2 44524.5 moveto
70791.6 44126 lineto
stroke
newpath
70791.6 43955.2 moveto
71190.2 43556.6 lineto
stroke
newpath
71190.2 43955.2 moveto
70791.6 43556.6 lineto
stroke
newpath
70791.6 43385.8 moveto
71190.2 42987.3 lineto
stroke
newpath
71190.2 43385.8 moveto
70791.6 42987.3 lineto
stroke
newpath
70791.6 42816.5 moveto
71190.2 42417.9 lineto
stroke
newpath
71190.2 42816.5 moveto
70791.6 42417.9 lineto
stroke
newpath
70791.6 42247.1 moveto
71190.2 41848.6 lineto
stroke
newpath
71190.2 42247.1 moveto
70791.6 41848.6 lineto
stroke
newpath
70791.6 41677.7 moveto
71190.2 41279.2 lineto
stroke
newpath
71190.2 41677.7 moveto
70791.6 41279.2 lineto
stroke
newpath
72044.2 40937.6 moveto
72442.8 40539 lineto
stroke
newpath
72442.8 40937.6 moveto
72044.2 40539 lineto
stroke
newpath
72613.6 40937.6 moveto
73012.1 40539 lineto
stroke
newpath
73012.1 40937.6 moveto
72613.6 40539 lineto
stroke
newpath
73182.9 40937.6 moveto
73581.5 40539 lineto
stroke
newpath
73581.5 40937.6 moveto
73182.9 40539 lineto
stroke
newpath
73752.3 40937.6 moveto
74150.8 40539 lineto
stroke
newpath
74150.8 40937.6 moveto
73752.3 40539 lineto
stroke
newpath
74321.6 40937.6 moveto
74720.2 40539 lineto
stroke
newpath
74720.2 40937.6 moveto
74321.6 40539 lineto
stroke
newpath
74891 40937.6 moveto
75289.5 40539 lineto
stroke
newpath
75289.5 40937.6 moveto
74891 40539 lineto
stroke
newpath
75460.4 40937.6 moveto
75858.9 40539 lineto
stroke
newpath
75858.9 40937.6 moveto
75460.4 40539 lineto
stroke
newpath
76029.7 40937.6 moveto
76428.3 40539 lineto
stroke
newpath
76428.3 40937.6 moveto
76029.7 40539 lineto
stroke
newpath
76599.1 40937.6 moveto
76997.6 40539 lineto
stroke
newpath
76997.6 40937.6 moveto
76599.1 40539 lineto
stroke
newpath
76656 63028.7 moveto
77054.6 62630.1 lineto
stroke
newpath
77054.6 63028.7 moveto
76656 62630.1 lineto
stroke
newpath
77168.4 40937.6 moveto
77567 40539 lineto
stroke
newpath
77567 40937.6 moveto
77168.4 40539 lineto
stroke
newpath
77225.4 63028.7 moveto
77623.9 62630.1 lineto
stroke
newpath
77623.9 63028.7 moveto
77225.4 62630.1 lineto
stroke
newpath
77737.8 40937.6 moveto
78136.3 40539 lineto
stroke
newpath
78136.3 40937.6 moveto
77737.8 40539 lineto
stroke
newpath
77794.7 63028.7 moveto
78193.3 62630.1 lineto
stroke
newpath
78193.3 63028.7 moveto
77794.7 62630.1 lineto
stroke
newpath
78307.1 40937.6 moveto
78705.7 40539 lineto
stroke
newpath
78705.7 40937.6 moveto
78307.1 40539 lineto
stroke
newpath
78364.1 63028.7 moveto
78762.6 62630.1 lineto
stroke
newpath
78762.6 63028.7 moveto
78364.1 62630.1 lineto
stroke
newpath
78876.5 40937.6 moveto
79275.1 40539 lineto
stroke
newpath
79275.1 40937.6 moveto
78876.5 40539 lineto
stroke
newpath
78933.4 63028.7 moveto
79332 62630.1 lineto
stroke
newpath
79332 63028.7 moveto
78933.4 62630.1 lineto
stroke
newpath
79502.8 63028.7 moveto
79901.3 62630.1 lineto
stroke
newpath
79901.3 63028.7 moveto
79502.8 62630.1 lineto
stroke
newpath
80072.2 63028.7 moveto
80470.7 62630.1 lineto
stroke
newpath
80470.7 63028.7 moveto
80072.2 62630.1 lineto
stroke
newpath
80641.5 63028.7 moveto
81040.1 62630.1 lineto
stroke
newpath
81040.1 63028.7 moveto
80641.5 62630.1 lineto
stroke
newpath
81210.9 63028.7 moveto
81609.4 62630.1 lineto
stroke
newpath
81609.4 63028.7 moveto
81210.9 62630.1 lineto
stroke
newpath
81780.2 63028.7 moveto
82178.8 62630.1 lineto
stroke
newpath
82178.8 63028.7 moveto
81780.2 62630.1 lineto
stroke
newpath
82349.6 63028.7 moveto
82748.1 62630.1 lineto
stroke
newpath
82748.1 63028.7 moveto
82349.6 62630.1 lineto
stroke
newpath
82918.9 63028.7 moveto
83317.5 62630.1 lineto
stroke
newpath
83317.5 63028.7 moveto
82918.9 62630.1 lineto
stroke
newpath
83488.3 63028.7 moveto
83886.9 62630.1 lineto
stroke
newpath
83886.9 63028.7 moveto
83488.3 62630.1 lineto
stroke
newpath
84740.9 62288.5 moveto
85139.4 61890 lineto
stroke
newpath
85139.4 62288.5 moveto
84740.9 61890 lineto
stroke
newpath
84740.9 61719.2 moveto
85139.4 61320.6 lineto
stroke
newpath
85139.4 61719.2 moveto
84740.9 61320.6 lineto
stroke
newpath
84740.9 61149.8 moveto
85139.4 60751.3 lineto
stroke
newpath
85139.4 61149.8 moveto
84740.9 60751.3 lineto
stroke
newpath
84740.9 60580.5 moveto
85139.4 60181.9 lineto
stroke
newpath
85139.4 60580.5 moveto
84740.9 60181.9 lineto
stroke
newpath
84740.9 60011.1 moveto
85139.4 59612.5 lineto
stroke
newpath
85139.4 60011.1 moveto
84740.9 59612.5 lineto
stroke
newpath
84740.9 59441.7 moveto
85139.4 59043.2 lineto
stroke
newpath
85139.4 59441.7 moveto
84740.9 59043.2 lineto
stroke
newpath
84740.9 58872.4 moveto
85139.4 58473.8 lineto
stroke
newpath
85139.4 58872.4 moveto
84740.9 58473.8 lineto
stroke
newpath
84740.9 58303 moveto
85139.4 57904.5 lineto
stroke
newpath
85139.4 58303 moveto
84740.9 57904.5 lineto
stroke
newpath
84740.9 57733.7 moveto
85139.4 57335.1 lineto
stroke
newpath
85139.4 57733.7 moveto
84740.9 57335.1 lineto
stroke
newpath
84740.9 57164.3 moveto
85139.4 56765.8 lineto
stroke
newpath
85139.4 57164.3 moveto
84740.9 56765.8 lineto
stroke
newpath
84740.9 56594.9 moveto
85139.4 56196.4 lineto
stroke
newpath
85139.4 56594.9 moveto
84740.9 56196.4 lineto
stroke
newpath
84740.9 56025.6 moveto
85139.4 55627 lineto
stroke
newpath
85139.4 56025.6 moveto
84740.9 55627 lineto
stroke
newpath
84740.9 55456.2 moveto
85139.4 55057.7 lineto
stroke
newpath
85139.4 55456.2 moveto
84740.9 55057.7 lineto
stroke
37171 73931.9 569.359 cir0
42864.6 69946.4 569.359 cir0
37171 61121.3 569.359 cir0
37171 53150.3 569.359 cir0
42864.6 57135.8 569.359 cir0
37171 43926.7 569.359 cir0
42864.6 39941.2 569.359 cir0
72926.7 75924.7 569.359 cir0
78620.3 71939.2 569.359 cir0
118.11 setlinewidth
0 0 0 setrgbcolor
0 0 0 setrgbcolor
newpath
24036.2 35175.5 moveto
24036.2 36356.6 lineto
24317.4 36356.6 lineto
24486.2 36300.3 lineto
24598.7 36187.9 lineto
24654.9 36075.4 lineto
24711.1 35850.4 lineto
24711.1 35681.7 lineto
24654.9 35456.7 lineto
24598.7 35344.2 lineto
24486.2 35231.7 lineto
24317.4 35175.5 lineto
24036.2 35175.5 lineto
stroke
newpath
25217.3 35175.5 moveto
25217.3 35962.9 lineto
stroke
newpath
25217.3 35737.9 moveto
25273.6 35850.4 lineto
25329.8 35906.6 lineto
25442.3 35962.9 lineto
25554.8 35962.9 lineto
stroke
newpath
25948.5 35175.5 moveto
25948.5 35962.9 lineto
stroke
newpath
25948.5 36356.6 moveto
25892.2 36300.3 lineto
25948.5 36244.1 lineto
26004.7 36300.3 lineto
25948.5 36356.6 lineto
25948.5 36244.1 lineto
stroke
newpath
26679.6 35175.5 moveto
26567.2 35231.7 lineto
26510.9 35344.2 lineto
26510.9 36356.6 lineto
stroke
newpath
27298.3 35175.5 moveto
27185.8 35231.7 lineto
27129.6 35344.2 lineto
27129.6 36356.6 lineto
stroke
newpath
28648.2 35175.5 moveto
28648.2 36356.6 lineto
29041.9 35512.9 lineto
29435.6 36356.6 lineto
29435.6 35175.5 lineto
stroke
newpath
30504.2 35175.5 moveto
30504.2 35794.2 lineto
30447.9 35906.6 lineto
30335.4 35962.9 lineto
30110.5 35962.9 lineto
29998 35906.6 lineto
stroke
newpath
30504.2 35231.7 moveto
30391.7 35175.5 lineto
30110.5 35175.5 lineto
29998 35231.7 lineto
29941.7 35344.2 lineto
29941.7 35456.7 lineto
29998 35569.2 lineto
30110.5 35625.4 lineto
30391.7 35625.4 lineto
30504.2 35681.7 lineto
stroke
newpath
31066.6 35962.9 moveto
31066.6 34781.8 lineto
stroke
newpath
31066.6 35906.6 moveto
31179.1 35962.9 lineto
31404.1 35962.9 lineto
31516.5 35906.6 lineto
31572.8 35850.4 lineto
31629 35737.9 lineto
31629 35400.5 lineto
31572.8 35288 lineto
31516.5 35231.7 lineto
31404.1 35175.5 lineto
31179.1 35175.5 lineto
31066.6 35231.7 lineto
stroke
newpath
32135.2 35288 moveto
32191.5 35231.7 lineto
32135.2 35175.5 lineto
32079 35231.7 lineto
32135.2 35288 lineto
32135.2 35175.5 lineto
stroke
newpath
32135.2 35906.6 moveto
32191.5 35850.4 lineto
32135.2 35794.2 lineto
32079 35850.4 lineto
32135.2 35906.6 lineto
32135.2 35794.2 lineto
stroke
newpath
22510 33428.8 moveto
22908.6 33030.2 lineto
stroke
newpath
22908.6 33428.8 moveto
22510 33030.2 lineto
stroke
0 0 0 setrgbcolor
0 0 0 setrgbcolor
newpath
24261.2 33876.3 moveto
24373.7 33876.3 lineto
24486.2 33820 lineto
24542.4 33763.8 lineto
24598.7 33651.3 lineto
24654.9 33426.3 lineto
24654.9 33145.1 lineto
24598.7 32920.1 lineto
24542.4 32807.7 lineto
24486.2 32751.4 lineto
24373.7 32695.2 lineto
24261.2 32695.2 lineto
24148.7 32751.4 lineto
24092.5 32807.7 lineto
24036.2 32920.1 lineto
23980 33145.1 lineto
23980 33426.3 lineto
24036.2 33651.3 lineto
24092.5 33763.8 lineto
24148.7 33820 lineto
24261.2 33876.3 lineto
stroke
newpath
25161.1 32807.7 moveto
25217.3 32751.4 lineto
25161.1 32695.2 lineto
25104.8 32751.4 lineto
25161.1 32807.7 lineto
25161.1 32695.2 lineto
stroke
newpath
25611 33876.3 moveto
26342.2 33876.3 lineto
25948.5 33426.3 lineto
26117.2 33426.3 lineto
26229.7 33370.1 lineto
26285.9 33313.8 lineto
26342.2 33201.4 lineto
26342.2 32920.1 lineto
26285.9 32807.7 lineto
26229.7 32751.4 lineto
26117.2 32695.2 lineto
25779.8 32695.2 lineto
25667.3 32751.4 lineto
25611 32807.7 lineto
stroke
newpath
27410.8 33876.3 moveto
26848.4 33876.3 lineto
26792.1 33313.8 lineto
26848.4 33370.1 lineto
26960.9 33426.3 lineto
27242.1 33426.3 lineto
27354.6 33370.1 lineto
27410.8 33313.8 lineto
27467 33201.4 lineto
27467 32920.1 lineto
27410.8 32807.7 lineto
27354.6 32751.4 lineto
27242.1 32695.2 lineto
26960.9 32695.2 lineto
26848.4 32751.4 lineto
26792.1 32807.7 lineto
stroke
newpath
27973.2 32695.2 moveto
27973.2 33482.6 lineto
stroke
newpath
27973.2 33370.1 moveto
28029.5 33426.3 lineto
28142 33482.6 lineto
28310.7 33482.6 lineto
28423.2 33426.3 lineto
28479.4 33313.8 lineto
28479.4 32695.2 lineto
stroke
newpath
28479.4 33313.8 moveto
28535.7 33426.3 lineto
28648.2 33482.6 lineto
28816.9 33482.6 lineto
28929.4 33426.3 lineto
28985.6 33313.8 lineto
28985.6 32695.2 lineto
stroke
newpath
29548 32695.2 moveto
29548 33482.6 lineto
stroke
newpath
29548 33370.1 moveto
29604.3 33426.3 lineto
29716.8 33482.6 lineto
29885.5 33482.6 lineto
29998 33426.3 lineto
30054.2 33313.8 lineto
30054.2 32695.2 lineto
stroke
newpath
30054.2 33313.8 moveto
30110.5 33426.3 lineto
30223 33482.6 lineto
30391.7 33482.6 lineto
30504.2 33426.3 lineto
30560.4 33313.8 lineto
30560.4 32695.2 lineto
stroke
newpath
32866.4 33932.5 moveto
31854 32414 lineto
stroke
newpath
34384.9 33876.3 moveto
34497.4 33876.3 lineto
34609.9 33820 lineto
34666.1 33763.8 lineto
34722.4 33651.3 lineto
34778.6 33426.3 lineto
34778.6 33145.1 lineto
34722.4 32920.1 lineto
34666.1 32807.7 lineto
34609.9 32751.4 lineto
34497.4 32695.2 lineto
34384.9 32695.2 lineto
34272.4 32751.4 lineto
34216.2 32807.7 lineto
34160 32920.1 lineto
34103.7 33145.1 lineto
34103.7 33426.3 lineto
34160 33651.3 lineto
34216.2 33763.8 lineto
34272.4 33820 lineto
34384.9 33876.3 lineto
stroke
newpath
35284.8 32807.7 moveto
35341.1 32751.4 lineto
35284.8 32695.2 lineto
35228.6 32751.4 lineto
35284.8 32807.7 lineto
35284.8 32695.2 lineto
stroke
newpath
36072.2 33876.3 moveto
36184.7 33876.3 lineto
36297.2 33820 lineto
36353.4 33763.8 lineto
36409.7 33651.3 lineto
36465.9 33426.3 lineto
36465.9 33145.1 lineto
36409.7 32920.1 lineto
36353.4 32807.7 lineto
36297.2 32751.4 lineto
36184.7 32695.2 lineto
36072.2 32695.2 lineto
35959.7 32751.4 lineto
35903.5 32807.7 lineto
35847.3 32920.1 lineto
35791 33145.1 lineto
35791 33426.3 lineto
35847.3 33651.3 lineto
35903.5 33763.8 lineto
35959.7 33820 lineto
36072.2 33876.3 lineto
stroke
newpath
37590.8 32695.2 moveto
36915.9 32695.2 lineto
stroke
newpath
37253.3 32695.2 moveto
37253.3 33876.3 lineto
37140.8 33707.5 lineto
37028.4 33595.1 lineto
36915.9 33538.8 lineto
stroke
newpath
38603.2 33482.6 moveto
38603.2 32695.2 lineto
stroke
newpath
38321.9 33932.5 moveto
38040.7 33088.9 lineto
38771.9 33088.9 lineto
stroke
newpath
39165.6 33876.3 moveto
39165.6 33651.3 lineto
stroke
newpath
39615.5 33876.3 moveto
39615.5 33651.3 lineto
stroke
newpath
41359.1 32245.2 moveto
41302.8 32301.5 lineto
41190.3 32470.2 lineto
41134.1 32582.7 lineto
41077.8 32751.4 lineto
41021.6 33032.6 lineto
41021.6 33257.6 lineto
41077.8 33538.8 lineto
41134.1 33707.5 lineto
41190.3 33820 lineto
41302.8 33988.8 lineto
41359.1 34045 lineto
stroke
newpath
42315.2 33876.3 moveto
42090.2 33876.3 lineto
41977.7 33820 lineto
41921.5 33763.8 lineto
41809 33595.1 lineto
41752.8 33370.1 lineto
41752.8 32920.1 lineto
41809 32807.7 lineto
41865.2 32751.4 lineto
41977.7 32695.2 lineto
42202.7 32695.2 lineto
42315.2 32751.4 lineto
42371.4 32807.7 lineto
42427.7 32920.1 lineto
42427.7 33201.4 lineto
42371.4 33313.8 lineto
42315.2 33370.1 lineto
42202.7 33426.3 lineto
41977.7 33426.3 lineto
41865.2 33370.1 lineto
41809 33313.8 lineto
41752.8 33201.4 lineto
stroke
newpath
42990.1 32695.2 moveto
43215.1 32695.2 lineto
43327.6 32751.4 lineto
43383.8 32807.7 lineto
43496.3 32976.4 lineto
43552.5 33201.4 lineto
43552.5 33651.3 lineto
43496.3 33763.8 lineto
43440.1 33820 lineto
43327.6 33876.3 lineto
43102.6 33876.3 lineto
42990.1 33820 lineto
42933.9 33763.8 lineto
42877.6 33651.3 lineto
42877.6 33370.1 lineto
42933.9 33257.6 lineto
42990.1 33201.4 lineto
43102.6 33145.1 lineto
43327.6 33145.1 lineto
43440.1 33201.4 lineto
43496.3 33257.6 lineto
43552.5 33370.1 lineto
stroke
newpath
44958.6 32695.2 moveto
44958.6 33876.3 lineto
stroke
newpath
45464.8 32695.2 moveto
45464.8 33313.8 lineto
45408.6 33426.3 lineto
45296.1 33482.6 lineto
45127.3 33482.6 lineto
45014.9 33426.3 lineto
44958.6 33370.1 lineto
stroke
newpath
46196 32695.2 moveto
46083.5 32751.4 lineto
46027.2 32807.7 lineto
45971 32920.1 lineto
45971 33257.6 lineto
46027.2 33370.1 lineto
46083.5 33426.3 lineto
46196 33482.6 lineto
46364.7 33482.6 lineto
46477.2 33426.3 lineto
46533.4 33370.1 lineto
46589.7 33257.6 lineto
46589.7 32920.1 lineto
46533.4 32807.7 lineto
46477.2 32751.4 lineto
46364.7 32695.2 lineto
46196 32695.2 lineto
stroke
newpath
47264.6 32695.2 moveto
47152.1 32751.4 lineto
47095.8 32863.9 lineto
47095.8 33876.3 lineto
stroke
newpath
48164.5 32751.4 moveto
48052 32695.2 lineto
47827 32695.2 lineto
47714.5 32751.4 lineto
47658.3 32863.9 lineto
47658.3 33313.8 lineto
47714.5 33426.3 lineto
47827 33482.6 lineto
48052 33482.6 lineto
48164.5 33426.3 lineto
48220.7 33313.8 lineto
48220.7 33201.4 lineto
47658.3 33088.9 lineto
stroke
newpath
48670.7 32751.4 moveto
48783.1 32695.2 lineto
49008.1 32695.2 lineto
49120.6 32751.4 lineto
49176.8 32863.9 lineto
49176.8 32920.1 lineto
49120.6 33032.6 lineto
49008.1 33088.9 lineto
48839.4 33088.9 lineto
48726.9 33145.1 lineto
48670.7 33257.6 lineto
48670.7 33313.8 lineto
48726.9 33426.3 lineto
48839.4 33482.6 lineto
49008.1 33482.6 lineto
49120.6 33426.3 lineto
stroke
newpath
49570.5 32245.2 moveto
49626.8 32301.5 lineto
49739.3 32470.2 lineto
49795.5 32582.7 lineto
49851.8 32751.4 lineto
49908 33032.6 lineto
49908 33257.6 lineto
49851.8 33538.8 lineto
49795.5 33707.5 lineto
49739.3 33820 lineto
49626.8 33988.8 lineto
49570.5 34045 lineto
stroke
22339.2 31670.4 569.359 cir0
0 0 0 setrgbcolor
0 0 0 setrgbcolor
newpath
24654.9 31136.1 moveto
23980 31136.1 lineto
stroke
newpath
24317.4 31136.1 moveto
24317.4 32317.2 lineto
24205 32148.5 lineto
24092.5 32036 lineto
23980 31979.8 lineto
stroke
newpath
25161.1 31248.6 moveto
25217.3 31192.4 lineto
25161.1 31136.1 lineto
25104.8 31192.4 lineto
25161.1 31248.6 lineto
25161.1 31136.1 lineto
stroke
newpath
25948.5 32317.2 moveto
26061 32317.2 lineto
26173.5 32261 lineto
26229.7 32204.7 lineto
26285.9 32092.2 lineto
26342.2 31867.3 lineto
26342.2 31586.1 lineto
26285.9 31361.1 lineto
26229.7 31248.6 lineto
26173.5 31192.4 lineto
26061 31136.1 lineto
25948.5 31136.1 lineto
25836 31192.4 lineto
25779.8 31248.6 lineto
25723.5 31361.1 lineto
25667.3 31586.1 lineto
25667.3 31867.3 lineto
25723.5 32092.2 lineto
25779.8 32204.7 lineto
25836 32261 lineto
25948.5 32317.2 lineto
stroke
newpath
27073.3 32317.2 moveto
27185.8 32317.2 lineto
27298.3 32261 lineto
27354.6 32204.7 lineto
27410.8 32092.2 lineto
27467 31867.3 lineto
27467 31586.1 lineto
27410.8 31361.1 lineto
27354.6 31248.6 lineto
27298.3 31192.4 lineto
27185.8 31136.1 lineto
27073.3 31136.1 lineto
26960.9 31192.4 lineto
26904.6 31248.6 lineto
26848.4 31361.1 lineto
26792.1 31586.1 lineto
26792.1 31867.3 lineto
26848.4 32092.2 lineto
26904.6 32204.7 lineto
26960.9 32261 lineto
27073.3 32317.2 lineto
stroke
newpath
27973.2 31136.1 moveto
27973.2 31923.5 lineto
stroke
newpath
27973.2 31811 moveto
28029.5 31867.3 lineto
28142 31923.5 lineto
28310.7 31923.5 lineto
28423.2 31867.3 lineto
28479.4 31754.8 lineto
28479.4 31136.1 lineto
stroke
newpath
28479.4 31754.8 moveto
28535.7 31867.3 lineto
28648.2 31923.5 lineto
28816.9 31923.5 lineto
28929.4 31867.3 lineto
28985.6 31754.8 lineto
28985.6 31136.1 lineto
stroke
newpath
29548 31136.1 moveto
29548 31923.5 lineto
stroke
newpath
29548 31811 moveto
29604.3 31867.3 lineto
29716.8 31923.5 lineto
29885.5 31923.5 lineto
29998 31867.3 lineto
30054.2 31754.8 lineto
30054.2 31136.1 lineto
stroke
newpath
30054.2 31754.8 moveto
30110.5 31867.3 lineto
30223 31923.5 lineto
30391.7 31923.5 lineto
30504.2 31867.3 lineto
30560.4 31754.8 lineto
30560.4 31136.1 lineto
stroke
newpath
32866.4 32373.5 moveto
31854 30854.9 lineto
stroke
newpath
34384.9 32317.2 moveto
34497.4 32317.2 lineto
34609.9 32261 lineto
34666.1 32204.7 lineto
34722.4 32092.2 lineto
34778.6 31867.3 lineto
34778.6 31586.1 lineto
34722.4 31361.1 lineto
34666.1 31248.6 lineto
34609.9 31192.4 lineto
34497.4 31136.1 lineto
34384.9 31136.1 lineto
34272.4 31192.4 lineto
34216.2 31248.6 lineto
34160 31361.1 lineto
34103.7 31586.1 lineto
34103.7 31867.3 lineto
34160 32092.2 lineto
34216.2 32204.7 lineto
34272.4 32261 lineto
34384.9 32317.2 lineto
stroke
newpath
35284.8 31248.6 moveto
35341.1 31192.4 lineto
35284.8 31136.1 lineto
35228.6 31192.4 lineto
35284.8 31248.6 lineto
35284.8 31136.1 lineto
stroke
newpath
36072.2 32317.2 moveto
36184.7 32317.2 lineto
36297.2 32261 lineto
36353.4 32204.7 lineto
36409.7 32092.2 lineto
36465.9 31867.3 lineto
36465.9 31586.1 lineto
36409.7 31361.1 lineto
36353.4 31248.6 lineto
36297.2 31192.4 lineto
36184.7 31136.1 lineto
36072.2 31136.1 lineto
35959.7 31192.4 lineto
35903.5 31248.6 lineto
35847.3 31361.1 lineto
35791 31586.1 lineto
35791 31867.3 lineto
35847.3 32092.2 lineto
35903.5 32204.7 lineto
35959.7 32261 lineto
36072.2 32317.2 lineto
stroke
newpath
36859.6 32317.2 moveto
37590.8 32317.2 lineto
37197.1 31867.3 lineto
37365.8 31867.3 lineto
37478.3 31811 lineto
37534.5 31754.8 lineto
37590.8 31642.3 lineto
37590.8 31361.1 lineto
37534.5 31248.6 lineto
37478.3 31192.4 lineto
37365.8 31136.1 lineto
37028.4 31136.1 lineto
36915.9 31192.4 lineto
36859.6 31248.6 lineto
stroke
newpath
38153.2 31136.1 moveto
38378.2 31136.1 lineto
38490.7 31192.4 lineto
38546.9 31248.6 lineto
38659.4 31417.3 lineto
38715.6 31642.3 lineto
38715.6 32092.2 lineto
38659.4 32204.7 lineto
38603.2 32261 lineto
38490.7 32317.2 lineto
38265.7 32317.2 lineto
38153.2 32261 lineto
38097 32204.7 lineto
38040.7 32092.2 lineto
38040.7 31811 lineto
38097 31698.5 lineto
38153.2 31642.3 lineto
38265.7 31586.1 lineto
38490.7 31586.1 lineto
38603.2 31642.3 lineto
38659.4 31698.5 lineto
38715.6 31811 lineto
stroke
newpath
39165.6 32317.2 moveto
39165.6 32092.2 lineto
stroke
newpath
39615.5 32317.2 moveto
39615.5 32092.2 lineto
stroke
newpath
41359.1 30686.2 moveto
41302.8 30742.4 lineto
41190.3 30911.1 lineto
41134.1 31023.6 lineto
41077.8 31192.4 lineto
41021.6 31473.6 lineto
41021.6 31698.5 lineto
41077.8 31979.8 lineto
41134.1 32148.5 lineto
41190.3 32261 lineto
41302.8 32429.7 lineto
41359.1 32486 lineto
stroke
newpath
41865.2 31136.1 moveto
42090.2 31136.1 lineto
42202.7 31192.4 lineto
42259 31248.6 lineto
42371.4 31417.3 lineto
42427.7 31642.3 lineto
42427.7 32092.2 lineto
42371.4 32204.7 lineto
42315.2 32261 lineto
42202.7 32317.2 lineto
41977.7 32317.2 lineto
41865.2 32261 lineto
41809 32204.7 lineto
41752.8 32092.2 lineto
41752.8 31811 lineto
41809 31698.5 lineto
41865.2 31642.3 lineto
41977.7 31586.1 lineto
42202.7 31586.1 lineto
42315.2 31642.3 lineto
42371.4 31698.5 lineto
42427.7 31811 lineto
stroke
newpath
43833.8 31136.1 moveto
43833.8 32317.2 lineto
stroke
newpath
44339.9 31136.1 moveto
44339.9 31754.8 lineto
44283.7 31867.3 lineto
44171.2 31923.5 lineto
44002.5 31923.5 lineto
43890 31867.3 lineto
43833.8 31811 lineto
stroke
newpath
45071.1 31136.1 moveto
44958.6 31192.4 lineto
44902.4 31248.6 lineto
44846.1 31361.1 lineto
44846.1 31698.5 lineto
44902.4 31811 lineto
44958.6 31867.3 lineto
45071.1 31923.5 lineto
45239.8 31923.5 lineto
45352.3 31867.3 lineto
45408.6 31811 lineto
45464.8 31698.5 lineto
45464.8 31361.1 lineto
45408.6 31248.6 lineto
45352.3 31192.4 lineto
45239.8 31136.1 lineto
45071.1 31136.1 lineto
stroke
newpath
46139.7 31136.1 moveto
46027.2 31192.4 lineto
45971 31304.8 lineto
45971 32317.2 lineto
stroke
newpath
47039.6 31192.4 moveto
46927.1 31136.1 lineto
46702.1 31136.1 lineto
46589.7 31192.4 lineto
46533.4 31304.8 lineto
46533.4 31754.8 lineto
46589.7 31867.3 lineto
46702.1 31923.5 lineto
46927.1 31923.5 lineto
47039.6 31867.3 lineto
47095.8 31754.8 lineto
47095.8 31642.3 lineto
46533.4 31529.8 lineto
stroke
newpath
47545.8 31192.4 moveto
47658.3 31136.1 lineto
47883.2 31136.1 lineto
47995.7 31192.4 lineto
48052 31304.8 lineto
48052 31361.1 lineto
47995.7 31473.6 lineto
47883.2 31529.8 lineto
47714.5 31529.8 lineto
47602 31586.1 lineto
47545.8 31698.5 lineto
47545.8 31754.8 lineto
47602 31867.3 lineto
47714.5 31923.5 lineto
47883.2 31923.5 lineto
47995.7 31867.3 lineto
stroke
newpath
48445.7 30686.2 moveto
48501.9 30742.4 lineto
48614.4 30911.1 lineto
48670.7 31023.6 lineto
48726.9 31192.4 lineto
48783.1 31473.6 lineto
48783.1 31698.5 lineto
48726.9 31979.8 lineto
48670.7 32148.5 lineto
48614.4 32261 lineto
48501.9 32429.7 lineto
48445.7 32486 lineto
stroke
showpage
grestore
%%EOF
