%TF.GenerationSoftware,KiCad,Pcbnew,5.1.6+dfsg1-1*%
%TF.CreationDate,2021-02-19T18:18:32+01:00*%
%TF.ProjectId,ampdcprot-1,616d7064-6370-4726-9f74-2d312e6b6963,rev?*%
%TF.SameCoordinates,Original*%
%TF.FileFunction,Profile,NP*%
%FSLAX46Y46*%
G04 Gerber Fmt 4.6, Leading zero omitted, Abs format (unit mm)*
G04 Created by KiCad (PCBNEW 5.1.6+dfsg1-1) date 2021-02-19 18:18:32*
%MOMM*%
%LPD*%
G01*
G04 APERTURE LIST*
%TA.AperFunction,Profile*%
%ADD10C,0.050000*%
%TD*%
G04 APERTURE END LIST*
D10*
X108200000Y-126500000D02*
X170600000Y-126500000D01*
X108200000Y-89900000D02*
X108200000Y-126500000D01*
X170600000Y-89900000D02*
X108200000Y-89900000D01*
X170600000Y-126500000D02*
X170600000Y-89900000D01*
M02*
