%!PS-Adobe-3.0
%%Creator: PCBNEW
%%CreationDate: Fri Feb 19 18:18:20 2021
%%Title: /home/tijls/Nextcloud/Projects/Amplifier/ampdcprot-1/ampdcprot-1/batch-2020a/gerbers/ampdcprot-1-NPTH-drl_map.ps
%%Pages: 1
%%PageOrder: Ascend
%%BoundingBox: 0 0 596 842
%%DocumentMedia: A4 595 842 0 () ()
%%Orientation: Landscape
%%EndComments
%%BeginProlog
/line { newpath moveto lineto stroke } bind def
/cir0 { newpath 0 360 arc stroke } bind def
/cir1 { newpath 0 360 arc gsave fill grestore stroke } bind def
/cir2 { newpath 0 360 arc gsave fill grestore stroke } bind def
/arc0 { newpath arc stroke } bind def
/arc1 { newpath 4 index 4 index moveto arc closepath gsave fill
    grestore stroke } bind def
/arc2 { newpath 4 index 4 index moveto arc closepath gsave fill
    grestore stroke } bind def
/poly0 { stroke } bind def
/poly1 { closepath gsave fill grestore stroke } bind def
/poly2 { closepath gsave fill grestore stroke } bind def
/rect0 { rectstroke } bind def
/rect1 { rectfill } bind def
/rect2 { rectfill } bind def
/linemode0 { 0 setlinecap 0 setlinejoin 0 setlinewidth } bind def
/linemode1 { 1 setlinecap 1 setlinejoin } bind def
/dashedline { [200] 100 setdash } bind def
/solidline { [] 0 setdash } bind def
/phantomshow { moveto
    /KicadFont findfont 0.000001 scalefont setfont
    show } bind def
/textshow { gsave
    findfont exch scalefont setfont concat 1 scale 0 0 moveto show
    } bind def
/reencodefont {
  findfont dup length dict begin
  { 1 index /FID ne
    { def }
    { pop pop } ifelse
  } forall
  /Encoding ISOLatin1Encoding def
  currentdict
  end } bind def
/KicadFont /Helvetica reencodefont definefont pop
/KicadFont-Bold /Helvetica-Bold reencodefont definefont pop
/KicadFont-Oblique /Helvetica-Oblique reencodefont definefont pop
/KicadFont-BoldOblique /Helvetica-BoldOblique reencodefont definefont pop
%%EndProlog
%%Page: 1 1
%%BeginPageSetup
gsave
0.0072 0.0072 scale
linemode1
82680 0 translate 90 rotate
144.617 setlinewidth
%%EndPageSetup
0 0 0 setrgbcolor
56.9359 setlinewidth
newpath
22937 37037.5 moveto
93993 37037.5 lineto
stroke
0 0 0 setrgbcolor
newpath
22937 78714.5 moveto
22937 37037.5 lineto
stroke
0 0 0 setrgbcolor
newpath
93993 78714.5 moveto
22937 78714.5 lineto
stroke
0 0 0 setrgbcolor
newpath
93993 37037.5 moveto
93993 78714.5 lineto
stroke
78.74 setlinewidth
newpath
87388.4 43186.5 moveto
91032.3 39542.7 lineto
stroke
newpath
91032.3 43186.5 moveto
87388.4 39542.7 lineto
stroke
newpath
25556.1 76095.5 moveto
29200 72451.6 lineto
stroke
newpath
29200 76095.5 moveto
25556.1 72451.6 lineto
stroke
newpath
25556.1 43186.5 moveto
29200 39542.7 lineto
stroke
newpath
29200 43186.5 moveto
25556.1 39542.7 lineto
stroke
newpath
87388.4 76095.5 moveto
91032.3 72451.6 lineto
stroke
newpath
91032.3 76095.5 moveto
87388.4 72451.6 lineto
stroke
118.11 setlinewidth
0 0 0 setrgbcolor
0 0 0 setrgbcolor
newpath
24036.2 35175.5 moveto
24036.2 36356.6 lineto
24317.4 36356.6 lineto
24486.2 36300.3 lineto
24598.7 36187.9 lineto
24654.9 36075.4 lineto
24711.1 35850.4 lineto
24711.1 35681.7 lineto
24654.9 35456.7 lineto
24598.7 35344.2 lineto
24486.2 35231.7 lineto
24317.4 35175.5 lineto
24036.2 35175.5 lineto
stroke
newpath
25217.3 35175.5 moveto
25217.3 35962.9 lineto
stroke
newpath
25217.3 35737.9 moveto
25273.6 35850.4 lineto
25329.8 35906.6 lineto
25442.3 35962.9 lineto
25554.8 35962.9 lineto
stroke
newpath
25948.5 35175.5 moveto
25948.5 35962.9 lineto
stroke
newpath
25948.5 36356.6 moveto
25892.2 36300.3 lineto
25948.5 36244.1 lineto
26004.7 36300.3 lineto
25948.5 36356.6 lineto
25948.5 36244.1 lineto
stroke
newpath
26679.6 35175.5 moveto
26567.2 35231.7 lineto
26510.9 35344.2 lineto
26510.9 36356.6 lineto
stroke
newpath
27298.3 35175.5 moveto
27185.8 35231.7 lineto
27129.6 35344.2 lineto
27129.6 36356.6 lineto
stroke
newpath
28648.2 35175.5 moveto
28648.2 36356.6 lineto
29041.9 35512.9 lineto
29435.6 36356.6 lineto
29435.6 35175.5 lineto
stroke
newpath
30504.2 35175.5 moveto
30504.2 35794.2 lineto
30447.9 35906.6 lineto
30335.4 35962.9 lineto
30110.5 35962.9 lineto
29998 35906.6 lineto
stroke
newpath
30504.2 35231.7 moveto
30391.7 35175.5 lineto
30110.5 35175.5 lineto
29998 35231.7 lineto
29941.7 35344.2 lineto
29941.7 35456.7 lineto
29998 35569.2 lineto
30110.5 35625.4 lineto
30391.7 35625.4 lineto
30504.2 35681.7 lineto
stroke
newpath
31066.6 35962.9 moveto
31066.6 34781.8 lineto
stroke
newpath
31066.6 35906.6 moveto
31179.1 35962.9 lineto
31404.1 35962.9 lineto
31516.5 35906.6 lineto
31572.8 35850.4 lineto
31629 35737.9 lineto
31629 35400.5 lineto
31572.8 35288 lineto
31516.5 35231.7 lineto
31404.1 35175.5 lineto
31179.1 35175.5 lineto
31066.6 35231.7 lineto
stroke
newpath
32135.2 35288 moveto
32191.5 35231.7 lineto
32135.2 35175.5 lineto
32079 35231.7 lineto
32135.2 35288 lineto
32135.2 35175.5 lineto
stroke
newpath
32135.2 35906.6 moveto
32191.5 35850.4 lineto
32135.2 35794.2 lineto
32079 35850.4 lineto
32135.2 35906.6 lineto
32135.2 35794.2 lineto
stroke
newpath
19264.7 35051.4 moveto
22908.6 31407.5 lineto
stroke
newpath
22908.6 35051.4 moveto
19264.7 31407.5 lineto
stroke
0 0 0 setrgbcolor
0 0 0 setrgbcolor
newpath
23923.7 33876.3 moveto
24654.9 33876.3 lineto
24261.2 33426.3 lineto
24429.9 33426.3 lineto
24542.4 33370.1 lineto
24598.7 33313.8 lineto
24654.9 33201.4 lineto
24654.9 32920.1 lineto
24598.7 32807.7 lineto
24542.4 32751.4 lineto
24429.9 32695.2 lineto
24092.5 32695.2 lineto
23980 32751.4 lineto
23923.7 32807.7 lineto
stroke
newpath
25161.1 32807.7 moveto
25217.3 32751.4 lineto
25161.1 32695.2 lineto
25104.8 32751.4 lineto
25161.1 32807.7 lineto
25161.1 32695.2 lineto
stroke
newpath
25667.3 33763.8 moveto
25723.5 33820 lineto
25836 33876.3 lineto
26117.2 33876.3 lineto
26229.7 33820 lineto
26285.9 33763.8 lineto
26342.2 33651.3 lineto
26342.2 33538.8 lineto
26285.9 33370.1 lineto
25611 32695.2 lineto
26342.2 32695.2 lineto
stroke
newpath
27073.3 33876.3 moveto
27185.8 33876.3 lineto
27298.3 33820 lineto
27354.6 33763.8 lineto
27410.8 33651.3 lineto
27467 33426.3 lineto
27467 33145.1 lineto
27410.8 32920.1 lineto
27354.6 32807.7 lineto
27298.3 32751.4 lineto
27185.8 32695.2 lineto
27073.3 32695.2 lineto
26960.9 32751.4 lineto
26904.6 32807.7 lineto
26848.4 32920.1 lineto
26792.1 33145.1 lineto
26792.1 33426.3 lineto
26848.4 33651.3 lineto
26904.6 33763.8 lineto
26960.9 33820 lineto
27073.3 33876.3 lineto
stroke
newpath
27973.2 32695.2 moveto
27973.2 33482.6 lineto
stroke
newpath
27973.2 33370.1 moveto
28029.5 33426.3 lineto
28142 33482.6 lineto
28310.7 33482.6 lineto
28423.2 33426.3 lineto
28479.4 33313.8 lineto
28479.4 32695.2 lineto
stroke
newpath
28479.4 33313.8 moveto
28535.7 33426.3 lineto
28648.2 33482.6 lineto
28816.9 33482.6 lineto
28929.4 33426.3 lineto
28985.6 33313.8 lineto
28985.6 32695.2 lineto
stroke
newpath
29548 32695.2 moveto
29548 33482.6 lineto
stroke
newpath
29548 33370.1 moveto
29604.3 33426.3 lineto
29716.8 33482.6 lineto
29885.5 33482.6 lineto
29998 33426.3 lineto
30054.2 33313.8 lineto
30054.2 32695.2 lineto
stroke
newpath
30054.2 33313.8 moveto
30110.5 33426.3 lineto
30223 33482.6 lineto
30391.7 33482.6 lineto
30504.2 33426.3 lineto
30560.4 33313.8 lineto
30560.4 32695.2 lineto
stroke
newpath
32866.4 33932.5 moveto
31854 32414 lineto
stroke
newpath
34384.9 33876.3 moveto
34497.4 33876.3 lineto
34609.9 33820 lineto
34666.1 33763.8 lineto
34722.4 33651.3 lineto
34778.6 33426.3 lineto
34778.6 33145.1 lineto
34722.4 32920.1 lineto
34666.1 32807.7 lineto
34609.9 32751.4 lineto
34497.4 32695.2 lineto
34384.9 32695.2 lineto
34272.4 32751.4 lineto
34216.2 32807.7 lineto
34160 32920.1 lineto
34103.7 33145.1 lineto
34103.7 33426.3 lineto
34160 33651.3 lineto
34216.2 33763.8 lineto
34272.4 33820 lineto
34384.9 33876.3 lineto
stroke
newpath
35284.8 32807.7 moveto
35341.1 32751.4 lineto
35284.8 32695.2 lineto
35228.6 32751.4 lineto
35284.8 32807.7 lineto
35284.8 32695.2 lineto
stroke
newpath
36465.9 32695.2 moveto
35791 32695.2 lineto
stroke
newpath
36128.5 32695.2 moveto
36128.5 33876.3 lineto
36016 33707.5 lineto
35903.5 33595.1 lineto
35791 33538.8 lineto
stroke
newpath
36915.9 33763.8 moveto
36972.1 33820 lineto
37084.6 33876.3 lineto
37365.8 33876.3 lineto
37478.3 33820 lineto
37534.5 33763.8 lineto
37590.8 33651.3 lineto
37590.8 33538.8 lineto
37534.5 33370.1 lineto
36859.6 32695.2 lineto
37590.8 32695.2 lineto
stroke
newpath
38603.2 33876.3 moveto
38378.2 33876.3 lineto
38265.7 33820 lineto
38209.5 33763.8 lineto
38097 33595.1 lineto
38040.7 33370.1 lineto
38040.7 32920.1 lineto
38097 32807.7 lineto
38153.2 32751.4 lineto
38265.7 32695.2 lineto
38490.7 32695.2 lineto
38603.2 32751.4 lineto
38659.4 32807.7 lineto
38715.6 32920.1 lineto
38715.6 33201.4 lineto
38659.4 33313.8 lineto
38603.2 33370.1 lineto
38490.7 33426.3 lineto
38265.7 33426.3 lineto
38153.2 33370.1 lineto
38097 33313.8 lineto
38040.7 33201.4 lineto
stroke
newpath
39165.6 33876.3 moveto
39165.6 33651.3 lineto
stroke
newpath
39615.5 33876.3 moveto
39615.5 33651.3 lineto
stroke
newpath
41359.1 32245.2 moveto
41302.8 32301.5 lineto
41190.3 32470.2 lineto
41134.1 32582.7 lineto
41077.8 32751.4 lineto
41021.6 33032.6 lineto
41021.6 33257.6 lineto
41077.8 33538.8 lineto
41134.1 33707.5 lineto
41190.3 33820 lineto
41302.8 33988.8 lineto
41359.1 34045 lineto
stroke
newpath
42315.2 33482.6 moveto
42315.2 32695.2 lineto
stroke
newpath
42034 33932.5 moveto
41752.8 33088.9 lineto
42483.9 33088.9 lineto
stroke
newpath
43833.8 32695.2 moveto
43833.8 33876.3 lineto
stroke
newpath
44339.9 32695.2 moveto
44339.9 33313.8 lineto
44283.7 33426.3 lineto
44171.2 33482.6 lineto
44002.5 33482.6 lineto
43890 33426.3 lineto
43833.8 33370.1 lineto
stroke
newpath
45071.1 32695.2 moveto
44958.6 32751.4 lineto
44902.4 32807.7 lineto
44846.1 32920.1 lineto
44846.1 33257.6 lineto
44902.4 33370.1 lineto
44958.6 33426.3 lineto
45071.1 33482.6 lineto
45239.8 33482.6 lineto
45352.3 33426.3 lineto
45408.6 33370.1 lineto
45464.8 33257.6 lineto
45464.8 32920.1 lineto
45408.6 32807.7 lineto
45352.3 32751.4 lineto
45239.8 32695.2 lineto
45071.1 32695.2 lineto
stroke
newpath
46139.7 32695.2 moveto
46027.2 32751.4 lineto
45971 32863.9 lineto
45971 33876.3 lineto
stroke
newpath
47039.6 32751.4 moveto
46927.1 32695.2 lineto
46702.1 32695.2 lineto
46589.7 32751.4 lineto
46533.4 32863.9 lineto
46533.4 33313.8 lineto
46589.7 33426.3 lineto
46702.1 33482.6 lineto
46927.1 33482.6 lineto
47039.6 33426.3 lineto
47095.8 33313.8 lineto
47095.8 33201.4 lineto
46533.4 33088.9 lineto
stroke
newpath
47545.8 32751.4 moveto
47658.3 32695.2 lineto
47883.2 32695.2 lineto
47995.7 32751.4 lineto
48052 32863.9 lineto
48052 32920.1 lineto
47995.7 33032.6 lineto
47883.2 33088.9 lineto
47714.5 33088.9 lineto
47602 33145.1 lineto
47545.8 33257.6 lineto
47545.8 33313.8 lineto
47602 33426.3 lineto
47714.5 33482.6 lineto
47883.2 33482.6 lineto
47995.7 33426.3 lineto
stroke
newpath
48445.7 32245.2 moveto
48501.9 32301.5 lineto
48614.4 32470.2 lineto
48670.7 32582.7 lineto
48726.9 32751.4 lineto
48783.1 33032.6 lineto
48783.1 33257.6 lineto
48726.9 33538.8 lineto
48670.7 33707.5 lineto
48614.4 33820 lineto
48501.9 33988.8 lineto
48445.7 34045 lineto
stroke
newpath
50582.9 32245.2 moveto
50526.7 32301.5 lineto
50414.2 32470.2 lineto
50357.9 32582.7 lineto
50301.7 32751.4 lineto
50245.5 33032.6 lineto
50245.5 33257.6 lineto
50301.7 33538.8 lineto
50357.9 33707.5 lineto
50414.2 33820 lineto
50526.7 33988.8 lineto
50582.9 34045 lineto
stroke
newpath
51032.9 33482.6 moveto
51032.9 32695.2 lineto
stroke
newpath
51032.9 33370.1 moveto
51089.1 33426.3 lineto
51201.6 33482.6 lineto
51370.3 33482.6 lineto
51482.8 33426.3 lineto
51539 33313.8 lineto
51539 32695.2 lineto
stroke
newpath
52270.2 32695.2 moveto
52157.7 32751.4 lineto
52101.5 32807.7 lineto
52045.2 32920.1 lineto
52045.2 33257.6 lineto
52101.5 33370.1 lineto
52157.7 33426.3 lineto
52270.2 33482.6 lineto
52438.9 33482.6 lineto
52551.4 33426.3 lineto
52607.7 33370.1 lineto
52663.9 33257.6 lineto
52663.9 32920.1 lineto
52607.7 32807.7 lineto
52551.4 32751.4 lineto
52438.9 32695.2 lineto
52270.2 32695.2 lineto
stroke
newpath
53001.4 33482.6 moveto
53451.3 33482.6 lineto
stroke
newpath
53170.1 33876.3 moveto
53170.1 32863.9 lineto
53226.3 32751.4 lineto
53338.8 32695.2 lineto
53451.3 32695.2 lineto
stroke
newpath
54744.9 33482.6 moveto
54744.9 32301.5 lineto
stroke
newpath
54744.9 33426.3 moveto
54857.4 33482.6 lineto
55082.3 33482.6 lineto
55194.8 33426.3 lineto
55251.1 33370.1 lineto
55307.3 33257.6 lineto
55307.3 32920.1 lineto
55251.1 32807.7 lineto
55194.8 32751.4 lineto
55082.3 32695.2 lineto
54857.4 32695.2 lineto
54744.9 32751.4 lineto
stroke
newpath
55982.2 32695.2 moveto
55869.8 32751.4 lineto
55813.5 32863.9 lineto
55813.5 33876.3 lineto
stroke
newpath
56938.4 32695.2 moveto
56938.4 33313.8 lineto
56882.1 33426.3 lineto
56769.6 33482.6 lineto
56544.7 33482.6 lineto
56432.2 33426.3 lineto
stroke
newpath
56938.4 32751.4 moveto
56825.9 32695.2 lineto
56544.7 32695.2 lineto
56432.2 32751.4 lineto
56375.9 32863.9 lineto
56375.9 32976.4 lineto
56432.2 33088.9 lineto
56544.7 33145.1 lineto
56825.9 33145.1 lineto
56938.4 33201.4 lineto
stroke
newpath
57332.1 33482.6 moveto
57782 33482.6 lineto
stroke
newpath
57500.8 33876.3 moveto
57500.8 32863.9 lineto
57557 32751.4 lineto
57669.5 32695.2 lineto
57782 32695.2 lineto
stroke
newpath
58625.7 32751.4 moveto
58513.2 32695.2 lineto
58288.2 32695.2 lineto
58175.7 32751.4 lineto
58119.5 32863.9 lineto
58119.5 33313.8 lineto
58175.7 33426.3 lineto
58288.2 33482.6 lineto
58513.2 33482.6 lineto
58625.7 33426.3 lineto
58681.9 33313.8 lineto
58681.9 33201.4 lineto
58119.5 33088.9 lineto
stroke
newpath
59694.3 32695.2 moveto
59694.3 33876.3 lineto
stroke
newpath
59694.3 32751.4 moveto
59581.8 32695.2 lineto
59356.8 32695.2 lineto
59244.3 32751.4 lineto
59188.1 32807.7 lineto
59131.8 32920.1 lineto
59131.8 33257.6 lineto
59188.1 33370.1 lineto
59244.3 33426.3 lineto
59356.8 33482.6 lineto
59581.8 33482.6 lineto
59694.3 33426.3 lineto
stroke
newpath
60144.2 32245.2 moveto
60200.5 32301.5 lineto
60312.9 32470.2 lineto
60369.2 32582.7 lineto
60425.4 32751.4 lineto
60481.7 33032.6 lineto
60481.7 33257.6 lineto
60425.4 33538.8 lineto
60369.2 33707.5 lineto
60312.9 33820 lineto
60200.5 33988.8 lineto
60144.2 34045 lineto
stroke
showpage
grestore
%%EOF
