%TF.GenerationSoftware,KiCad,Pcbnew,5.1.6+dfsg1-1*%
%TF.CreationDate,2021-02-19T18:18:32+01:00*%
%TF.ProjectId,ampdcprot-1,616d7064-6370-4726-9f74-2d312e6b6963,rev?*%
%TF.SameCoordinates,Original*%
%TF.FileFunction,Legend,Top*%
%TF.FilePolarity,Positive*%
%FSLAX46Y46*%
G04 Gerber Fmt 4.6, Leading zero omitted, Abs format (unit mm)*
G04 Created by KiCad (PCBNEW 5.1.6+dfsg1-1) date 2021-02-19 18:18:32*
%MOMM*%
%LPD*%
G01*
G04 APERTURE LIST*
%ADD10C,0.120000*%
%ADD11C,0.150000*%
G04 APERTURE END LIST*
D10*
X147900000Y-104000000D02*
X149000000Y-104400000D01*
X147900000Y-102600000D02*
X148800000Y-102600000D01*
X147900000Y-101100000D02*
X149100000Y-100700000D01*
X147300000Y-105900000D02*
X145400000Y-104900000D01*
X147300000Y-99400000D02*
X147300000Y-105900000D01*
X145400000Y-100400000D02*
X147300000Y-99400000D01*
X145400000Y-100400000D02*
X144200000Y-100400000D01*
X145400000Y-104900000D02*
X145400000Y-100400000D01*
X144200000Y-104900000D02*
X145400000Y-104900000D01*
X144200000Y-100400000D02*
X144200000Y-104900000D01*
D11*
X139819047Y-91802380D02*
X139819047Y-91278571D01*
X139771428Y-91183333D01*
X139676190Y-91135714D01*
X139485714Y-91135714D01*
X139390476Y-91183333D01*
X139819047Y-91754761D02*
X139723809Y-91802380D01*
X139485714Y-91802380D01*
X139390476Y-91754761D01*
X139342857Y-91659523D01*
X139342857Y-91564285D01*
X139390476Y-91469047D01*
X139485714Y-91421428D01*
X139723809Y-91421428D01*
X139819047Y-91373809D01*
X140295238Y-91802380D02*
X140295238Y-91135714D01*
X140295238Y-91230952D02*
X140342857Y-91183333D01*
X140438095Y-91135714D01*
X140580952Y-91135714D01*
X140676190Y-91183333D01*
X140723809Y-91278571D01*
X140723809Y-91802380D01*
X140723809Y-91278571D02*
X140771428Y-91183333D01*
X140866666Y-91135714D01*
X141009523Y-91135714D01*
X141104761Y-91183333D01*
X141152380Y-91278571D01*
X141152380Y-91802380D01*
X141628571Y-91135714D02*
X141628571Y-92135714D01*
X141628571Y-91183333D02*
X141723809Y-91135714D01*
X141914285Y-91135714D01*
X142009523Y-91183333D01*
X142057142Y-91230952D01*
X142104761Y-91326190D01*
X142104761Y-91611904D01*
X142057142Y-91707142D01*
X142009523Y-91754761D01*
X141914285Y-91802380D01*
X141723809Y-91802380D01*
X141628571Y-91754761D01*
X142961904Y-91802380D02*
X142961904Y-90802380D01*
X142961904Y-91754761D02*
X142866666Y-91802380D01*
X142676190Y-91802380D01*
X142580952Y-91754761D01*
X142533333Y-91707142D01*
X142485714Y-91611904D01*
X142485714Y-91326190D01*
X142533333Y-91230952D01*
X142580952Y-91183333D01*
X142676190Y-91135714D01*
X142866666Y-91135714D01*
X142961904Y-91183333D01*
X143866666Y-91754761D02*
X143771428Y-91802380D01*
X143580952Y-91802380D01*
X143485714Y-91754761D01*
X143438095Y-91707142D01*
X143390476Y-91611904D01*
X143390476Y-91326190D01*
X143438095Y-91230952D01*
X143485714Y-91183333D01*
X143580952Y-91135714D01*
X143771428Y-91135714D01*
X143866666Y-91183333D01*
X144295238Y-91135714D02*
X144295238Y-92135714D01*
X144295238Y-91183333D02*
X144390476Y-91135714D01*
X144580952Y-91135714D01*
X144676190Y-91183333D01*
X144723809Y-91230952D01*
X144771428Y-91326190D01*
X144771428Y-91611904D01*
X144723809Y-91707142D01*
X144676190Y-91754761D01*
X144580952Y-91802380D01*
X144390476Y-91802380D01*
X144295238Y-91754761D01*
X145200000Y-91802380D02*
X145200000Y-91135714D01*
X145200000Y-91326190D02*
X145247619Y-91230952D01*
X145295238Y-91183333D01*
X145390476Y-91135714D01*
X145485714Y-91135714D01*
X145961904Y-91802380D02*
X145866666Y-91754761D01*
X145819047Y-91707142D01*
X145771428Y-91611904D01*
X145771428Y-91326190D01*
X145819047Y-91230952D01*
X145866666Y-91183333D01*
X145961904Y-91135714D01*
X146104761Y-91135714D01*
X146200000Y-91183333D01*
X146247619Y-91230952D01*
X146295238Y-91326190D01*
X146295238Y-91611904D01*
X146247619Y-91707142D01*
X146200000Y-91754761D01*
X146104761Y-91802380D01*
X145961904Y-91802380D01*
X146580952Y-91135714D02*
X146961904Y-91135714D01*
X146723809Y-90802380D02*
X146723809Y-91659523D01*
X146771428Y-91754761D01*
X146866666Y-91802380D01*
X146961904Y-91802380D01*
X147295238Y-91421428D02*
X148057142Y-91421428D01*
X149057142Y-91802380D02*
X148485714Y-91802380D01*
X148771428Y-91802380D02*
X148771428Y-90802380D01*
X148676190Y-90945238D01*
X148580952Y-91040476D01*
X148485714Y-91088095D01*
X139271428Y-92452380D02*
X139842857Y-92452380D01*
X139557142Y-93452380D02*
X139557142Y-92452380D01*
X140176190Y-93452380D02*
X140176190Y-92785714D01*
X140176190Y-92452380D02*
X140128571Y-92500000D01*
X140176190Y-92547619D01*
X140223809Y-92500000D01*
X140176190Y-92452380D01*
X140176190Y-92547619D01*
X140652380Y-92785714D02*
X140652380Y-93642857D01*
X140604761Y-93738095D01*
X140509523Y-93785714D01*
X140461904Y-93785714D01*
X140652380Y-92452380D02*
X140604761Y-92500000D01*
X140652380Y-92547619D01*
X140700000Y-92500000D01*
X140652380Y-92452380D01*
X140652380Y-92547619D01*
X141271428Y-93452380D02*
X141176190Y-93404761D01*
X141128571Y-93309523D01*
X141128571Y-92452380D01*
X142366666Y-93404761D02*
X142509523Y-93452380D01*
X142747619Y-93452380D01*
X142842857Y-93404761D01*
X142890476Y-93357142D01*
X142938095Y-93261904D01*
X142938095Y-93166666D01*
X142890476Y-93071428D01*
X142842857Y-93023809D01*
X142747619Y-92976190D01*
X142557142Y-92928571D01*
X142461904Y-92880952D01*
X142414285Y-92833333D01*
X142366666Y-92738095D01*
X142366666Y-92642857D01*
X142414285Y-92547619D01*
X142461904Y-92500000D01*
X142557142Y-92452380D01*
X142795238Y-92452380D01*
X142938095Y-92500000D01*
X143795238Y-93404761D02*
X143700000Y-93452380D01*
X143509523Y-93452380D01*
X143414285Y-93404761D01*
X143366666Y-93357142D01*
X143319047Y-93261904D01*
X143319047Y-92976190D01*
X143366666Y-92880952D01*
X143414285Y-92833333D01*
X143509523Y-92785714D01*
X143700000Y-92785714D01*
X143795238Y-92833333D01*
X144223809Y-93452380D02*
X144223809Y-92452380D01*
X144652380Y-93452380D02*
X144652380Y-92928571D01*
X144604761Y-92833333D01*
X144509523Y-92785714D01*
X144366666Y-92785714D01*
X144271428Y-92833333D01*
X144223809Y-92880952D01*
X145509523Y-93404761D02*
X145414285Y-93452380D01*
X145223809Y-93452380D01*
X145128571Y-93404761D01*
X145080952Y-93309523D01*
X145080952Y-92928571D01*
X145128571Y-92833333D01*
X145223809Y-92785714D01*
X145414285Y-92785714D01*
X145509523Y-92833333D01*
X145557142Y-92928571D01*
X145557142Y-93023809D01*
X145080952Y-93119047D01*
X145985714Y-92785714D02*
X145985714Y-93785714D01*
X145985714Y-92833333D02*
X146080952Y-92785714D01*
X146271428Y-92785714D01*
X146366666Y-92833333D01*
X146414285Y-92880952D01*
X146461904Y-92976190D01*
X146461904Y-93261904D01*
X146414285Y-93357142D01*
X146366666Y-93404761D01*
X146271428Y-93452380D01*
X146080952Y-93452380D01*
X145985714Y-93404761D01*
X147271428Y-93404761D02*
X147176190Y-93452380D01*
X146985714Y-93452380D01*
X146890476Y-93404761D01*
X146842857Y-93309523D01*
X146842857Y-92928571D01*
X146890476Y-92833333D01*
X146985714Y-92785714D01*
X147176190Y-92785714D01*
X147271428Y-92833333D01*
X147319047Y-92928571D01*
X147319047Y-93023809D01*
X146842857Y-93119047D01*
X147747619Y-92785714D02*
X147747619Y-93452380D01*
X147747619Y-92880952D02*
X147795238Y-92833333D01*
X147890476Y-92785714D01*
X148033333Y-92785714D01*
X148128571Y-92833333D01*
X148176190Y-92928571D01*
X148176190Y-93452380D01*
X148604761Y-93404761D02*
X148700000Y-93452380D01*
X148890476Y-93452380D01*
X148985714Y-93404761D01*
X149033333Y-93309523D01*
X149033333Y-93261904D01*
X148985714Y-93166666D01*
X148890476Y-93119047D01*
X148747619Y-93119047D01*
X148652380Y-93071428D01*
X148604761Y-92976190D01*
X148604761Y-92928571D01*
X148652380Y-92833333D01*
X148747619Y-92785714D01*
X148890476Y-92785714D01*
X148985714Y-92833333D01*
X139342857Y-94197619D02*
X139390476Y-94150000D01*
X139485714Y-94102380D01*
X139723809Y-94102380D01*
X139819047Y-94150000D01*
X139866666Y-94197619D01*
X139914285Y-94292857D01*
X139914285Y-94388095D01*
X139866666Y-94530952D01*
X139295238Y-95102380D01*
X139914285Y-95102380D01*
X140533333Y-94102380D02*
X140628571Y-94102380D01*
X140723809Y-94150000D01*
X140771428Y-94197619D01*
X140819047Y-94292857D01*
X140866666Y-94483333D01*
X140866666Y-94721428D01*
X140819047Y-94911904D01*
X140771428Y-95007142D01*
X140723809Y-95054761D01*
X140628571Y-95102380D01*
X140533333Y-95102380D01*
X140438095Y-95054761D01*
X140390476Y-95007142D01*
X140342857Y-94911904D01*
X140295238Y-94721428D01*
X140295238Y-94483333D01*
X140342857Y-94292857D01*
X140390476Y-94197619D01*
X140438095Y-94150000D01*
X140533333Y-94102380D01*
X141247619Y-94197619D02*
X141295238Y-94150000D01*
X141390476Y-94102380D01*
X141628571Y-94102380D01*
X141723809Y-94150000D01*
X141771428Y-94197619D01*
X141819047Y-94292857D01*
X141819047Y-94388095D01*
X141771428Y-94530952D01*
X141200000Y-95102380D01*
X141819047Y-95102380D01*
X142438095Y-94102380D02*
X142533333Y-94102380D01*
X142628571Y-94150000D01*
X142676190Y-94197619D01*
X142723809Y-94292857D01*
X142771428Y-94483333D01*
X142771428Y-94721428D01*
X142723809Y-94911904D01*
X142676190Y-95007142D01*
X142628571Y-95054761D01*
X142533333Y-95102380D01*
X142438095Y-95102380D01*
X142342857Y-95054761D01*
X142295238Y-95007142D01*
X142247619Y-94911904D01*
X142200000Y-94721428D01*
X142200000Y-94483333D01*
X142247619Y-94292857D01*
X142295238Y-94197619D01*
X142342857Y-94150000D01*
X142438095Y-94102380D01*
X143200000Y-94721428D02*
X143961904Y-94721428D01*
X144961904Y-95102380D02*
X144390476Y-95102380D01*
X144676190Y-95102380D02*
X144676190Y-94102380D01*
X144580952Y-94245238D01*
X144485714Y-94340476D01*
X144390476Y-94388095D01*
X145580952Y-94102380D02*
X145676190Y-94102380D01*
X145771428Y-94150000D01*
X145819047Y-94197619D01*
X145866666Y-94292857D01*
X145914285Y-94483333D01*
X145914285Y-94721428D01*
X145866666Y-94911904D01*
X145819047Y-95007142D01*
X145771428Y-95054761D01*
X145676190Y-95102380D01*
X145580952Y-95102380D01*
X145485714Y-95054761D01*
X145438095Y-95007142D01*
X145390476Y-94911904D01*
X145342857Y-94721428D01*
X145342857Y-94483333D01*
X145390476Y-94292857D01*
X145438095Y-94197619D01*
X145485714Y-94150000D01*
X145580952Y-94102380D01*
X146342857Y-94721428D02*
X147104761Y-94721428D01*
X147533333Y-94197619D02*
X147580952Y-94150000D01*
X147676190Y-94102380D01*
X147914285Y-94102380D01*
X148009523Y-94150000D01*
X148057142Y-94197619D01*
X148104761Y-94292857D01*
X148104761Y-94388095D01*
X148057142Y-94530952D01*
X147485714Y-95102380D01*
X148104761Y-95102380D01*
X148438095Y-94102380D02*
X149104761Y-94102380D01*
X148676190Y-95102380D01*
X128838095Y-112500000D02*
X128742857Y-112452380D01*
X128600000Y-112452380D01*
X128457142Y-112500000D01*
X128361904Y-112595238D01*
X128314285Y-112690476D01*
X128266666Y-112880952D01*
X128266666Y-113023809D01*
X128314285Y-113214285D01*
X128361904Y-113309523D01*
X128457142Y-113404761D01*
X128600000Y-113452380D01*
X128695238Y-113452380D01*
X128838095Y-113404761D01*
X128885714Y-113357142D01*
X128885714Y-113023809D01*
X128695238Y-113023809D01*
X129314285Y-113452380D02*
X129314285Y-112452380D01*
X129885714Y-113452380D01*
X129885714Y-112452380D01*
X130361904Y-113452380D02*
X130361904Y-112452380D01*
X130600000Y-112452380D01*
X130742857Y-112500000D01*
X130838095Y-112595238D01*
X130885714Y-112690476D01*
X130933333Y-112880952D01*
X130933333Y-113023809D01*
X130885714Y-113214285D01*
X130838095Y-113309523D01*
X130742857Y-113404761D01*
X130600000Y-113452380D01*
X130361904Y-113452380D01*
X128907023Y-102927380D02*
X128573690Y-102451190D01*
X128335595Y-102927380D02*
X128335595Y-101927380D01*
X128716547Y-101927380D01*
X128811785Y-101975000D01*
X128859404Y-102022619D01*
X128907023Y-102117857D01*
X128907023Y-102260714D01*
X128859404Y-102355952D01*
X128811785Y-102403571D01*
X128716547Y-102451190D01*
X128335595Y-102451190D01*
X129716547Y-102879761D02*
X129621309Y-102927380D01*
X129430833Y-102927380D01*
X129335595Y-102879761D01*
X129287976Y-102784523D01*
X129287976Y-102403571D01*
X129335595Y-102308333D01*
X129430833Y-102260714D01*
X129621309Y-102260714D01*
X129716547Y-102308333D01*
X129764166Y-102403571D01*
X129764166Y-102498809D01*
X129287976Y-102594047D01*
X130145119Y-102879761D02*
X130240357Y-102927380D01*
X130430833Y-102927380D01*
X130526071Y-102879761D01*
X130573690Y-102784523D01*
X130573690Y-102736904D01*
X130526071Y-102641666D01*
X130430833Y-102594047D01*
X130287976Y-102594047D01*
X130192738Y-102546428D01*
X130145119Y-102451190D01*
X130145119Y-102403571D01*
X130192738Y-102308333D01*
X130287976Y-102260714D01*
X130430833Y-102260714D01*
X130526071Y-102308333D01*
X131383214Y-102879761D02*
X131287976Y-102927380D01*
X131097500Y-102927380D01*
X131002261Y-102879761D01*
X130954642Y-102784523D01*
X130954642Y-102403571D01*
X131002261Y-102308333D01*
X131097500Y-102260714D01*
X131287976Y-102260714D01*
X131383214Y-102308333D01*
X131430833Y-102403571D01*
X131430833Y-102498809D01*
X130954642Y-102594047D01*
X131716547Y-102260714D02*
X132097500Y-102260714D01*
X131859404Y-101927380D02*
X131859404Y-102784523D01*
X131907023Y-102879761D01*
X132002261Y-102927380D01*
X132097500Y-102927380D01*
X128668928Y-104053571D02*
X128335595Y-104053571D01*
X128335595Y-104577380D02*
X128335595Y-103577380D01*
X128811785Y-103577380D01*
X129573690Y-104529761D02*
X129478452Y-104577380D01*
X129287976Y-104577380D01*
X129192738Y-104529761D01*
X129145119Y-104434523D01*
X129145119Y-104053571D01*
X129192738Y-103958333D01*
X129287976Y-103910714D01*
X129478452Y-103910714D01*
X129573690Y-103958333D01*
X129621309Y-104053571D01*
X129621309Y-104148809D01*
X129145119Y-104244047D01*
X129907023Y-103910714D02*
X130287976Y-103910714D01*
X130049880Y-103577380D02*
X130049880Y-104434523D01*
X130097500Y-104529761D01*
X130192738Y-104577380D01*
X130287976Y-104577380D01*
X130383214Y-104672619D02*
X131145119Y-104672619D01*
X131811785Y-104529761D02*
X131716547Y-104577380D01*
X131526071Y-104577380D01*
X131430833Y-104529761D01*
X131383214Y-104482142D01*
X131335595Y-104386904D01*
X131335595Y-104101190D01*
X131383214Y-104005952D01*
X131430833Y-103958333D01*
X131526071Y-103910714D01*
X131716547Y-103910714D01*
X131811785Y-103958333D01*
X132383214Y-104577380D02*
X132287976Y-104529761D01*
X132240357Y-104482142D01*
X132192738Y-104386904D01*
X132192738Y-104101190D01*
X132240357Y-104005952D01*
X132287976Y-103958333D01*
X132383214Y-103910714D01*
X132526071Y-103910714D01*
X132621309Y-103958333D01*
X132668928Y-104005952D01*
X132716547Y-104101190D01*
X132716547Y-104386904D01*
X132668928Y-104482142D01*
X132621309Y-104529761D01*
X132526071Y-104577380D01*
X132383214Y-104577380D01*
X133145119Y-103910714D02*
X133145119Y-104577380D01*
X133145119Y-104005952D02*
X133192738Y-103958333D01*
X133287976Y-103910714D01*
X133430833Y-103910714D01*
X133526071Y-103958333D01*
X133573690Y-104053571D01*
X133573690Y-104577380D01*
X133907023Y-103910714D02*
X134287976Y-103910714D01*
X134049880Y-103577380D02*
X134049880Y-104434523D01*
X134097500Y-104529761D01*
X134192738Y-104577380D01*
X134287976Y-104577380D01*
X128523809Y-93004761D02*
X128666666Y-93052380D01*
X128904761Y-93052380D01*
X129000000Y-93004761D01*
X129047619Y-92957142D01*
X129095238Y-92861904D01*
X129095238Y-92766666D01*
X129047619Y-92671428D01*
X129000000Y-92623809D01*
X128904761Y-92576190D01*
X128714285Y-92528571D01*
X128619047Y-92480952D01*
X128571428Y-92433333D01*
X128523809Y-92338095D01*
X128523809Y-92242857D01*
X128571428Y-92147619D01*
X128619047Y-92100000D01*
X128714285Y-92052380D01*
X128952380Y-92052380D01*
X129095238Y-92100000D01*
X129523809Y-93052380D02*
X129523809Y-92385714D01*
X129523809Y-92052380D02*
X129476190Y-92100000D01*
X129523809Y-92147619D01*
X129571428Y-92100000D01*
X129523809Y-92052380D01*
X129523809Y-92147619D01*
X130428571Y-92385714D02*
X130428571Y-93195238D01*
X130380952Y-93290476D01*
X130333333Y-93338095D01*
X130238095Y-93385714D01*
X130095238Y-93385714D01*
X130000000Y-93338095D01*
X130428571Y-93004761D02*
X130333333Y-93052380D01*
X130142857Y-93052380D01*
X130047619Y-93004761D01*
X130000000Y-92957142D01*
X129952380Y-92861904D01*
X129952380Y-92576190D01*
X130000000Y-92480952D01*
X130047619Y-92433333D01*
X130142857Y-92385714D01*
X130333333Y-92385714D01*
X130428571Y-92433333D01*
X129138095Y-97200000D02*
X129042857Y-97152380D01*
X128900000Y-97152380D01*
X128757142Y-97200000D01*
X128661904Y-97295238D01*
X128614285Y-97390476D01*
X128566666Y-97580952D01*
X128566666Y-97723809D01*
X128614285Y-97914285D01*
X128661904Y-98009523D01*
X128757142Y-98104761D01*
X128900000Y-98152380D01*
X128995238Y-98152380D01*
X129138095Y-98104761D01*
X129185714Y-98057142D01*
X129185714Y-97723809D01*
X128995238Y-97723809D01*
X129614285Y-98152380D02*
X129614285Y-97152380D01*
X130185714Y-98152380D01*
X130185714Y-97152380D01*
X130661904Y-98152380D02*
X130661904Y-97152380D01*
X130900000Y-97152380D01*
X131042857Y-97200000D01*
X131138095Y-97295238D01*
X131185714Y-97390476D01*
X131233333Y-97580952D01*
X131233333Y-97723809D01*
X131185714Y-97914285D01*
X131138095Y-98009523D01*
X131042857Y-98104761D01*
X130900000Y-98152380D01*
X130661904Y-98152380D01*
X118752380Y-101852380D02*
X118752380Y-100852380D01*
X119228571Y-101185714D02*
X119228571Y-101852380D01*
X119228571Y-101280952D02*
X119276190Y-101233333D01*
X119371428Y-101185714D01*
X119514285Y-101185714D01*
X119609523Y-101233333D01*
X119657142Y-101328571D01*
X119657142Y-101852380D01*
X120133333Y-101185714D02*
X120133333Y-102185714D01*
X120133333Y-101233333D02*
X120228571Y-101185714D01*
X120419047Y-101185714D01*
X120514285Y-101233333D01*
X120561904Y-101280952D01*
X120609523Y-101376190D01*
X120609523Y-101661904D01*
X120561904Y-101757142D01*
X120514285Y-101804761D01*
X120419047Y-101852380D01*
X120228571Y-101852380D01*
X120133333Y-101804761D01*
X121466666Y-101185714D02*
X121466666Y-101852380D01*
X121038095Y-101185714D02*
X121038095Y-101709523D01*
X121085714Y-101804761D01*
X121180952Y-101852380D01*
X121323809Y-101852380D01*
X121419047Y-101804761D01*
X121466666Y-101757142D01*
X121800000Y-101185714D02*
X122180952Y-101185714D01*
X121942857Y-100852380D02*
X121942857Y-101709523D01*
X121990476Y-101804761D01*
X122085714Y-101852380D01*
X122180952Y-101852380D01*
X122466666Y-101804761D02*
X122561904Y-101852380D01*
X122752380Y-101852380D01*
X122847619Y-101804761D01*
X122895238Y-101709523D01*
X122895238Y-101661904D01*
X122847619Y-101566666D01*
X122752380Y-101519047D01*
X122609523Y-101519047D01*
X122514285Y-101471428D01*
X122466666Y-101376190D01*
X122466666Y-101328571D01*
X122514285Y-101233333D01*
X122609523Y-101185714D01*
X122752380Y-101185714D01*
X122847619Y-101233333D01*
X122195238Y-100266666D02*
X122671428Y-100266666D01*
X122100000Y-100552380D02*
X122433333Y-99552380D01*
X122766666Y-100552380D01*
X123528571Y-99885714D02*
X123528571Y-100552380D01*
X123100000Y-99885714D02*
X123100000Y-100409523D01*
X123147619Y-100504761D01*
X123242857Y-100552380D01*
X123385714Y-100552380D01*
X123480952Y-100504761D01*
X123528571Y-100457142D01*
X124433333Y-100552380D02*
X124433333Y-99552380D01*
X124433333Y-100504761D02*
X124338095Y-100552380D01*
X124147619Y-100552380D01*
X124052380Y-100504761D01*
X124004761Y-100457142D01*
X123957142Y-100361904D01*
X123957142Y-100076190D01*
X124004761Y-99980952D01*
X124052380Y-99933333D01*
X124147619Y-99885714D01*
X124338095Y-99885714D01*
X124433333Y-99933333D01*
X124909523Y-100552380D02*
X124909523Y-99885714D01*
X124909523Y-99552380D02*
X124861904Y-99600000D01*
X124909523Y-99647619D01*
X124957142Y-99600000D01*
X124909523Y-99552380D01*
X124909523Y-99647619D01*
X125528571Y-100552380D02*
X125433333Y-100504761D01*
X125385714Y-100457142D01*
X125338095Y-100361904D01*
X125338095Y-100076190D01*
X125385714Y-99980952D01*
X125433333Y-99933333D01*
X125528571Y-99885714D01*
X125671428Y-99885714D01*
X125766666Y-99933333D01*
X125814285Y-99980952D01*
X125861904Y-100076190D01*
X125861904Y-100361904D01*
X125814285Y-100457142D01*
X125766666Y-100504761D01*
X125671428Y-100552380D01*
X125528571Y-100552380D01*
X127052380Y-100552380D02*
X127052380Y-99552380D01*
X127528571Y-99885714D02*
X127528571Y-100552380D01*
X127528571Y-99980952D02*
X127576190Y-99933333D01*
X127671428Y-99885714D01*
X127814285Y-99885714D01*
X127909523Y-99933333D01*
X127957142Y-100028571D01*
X127957142Y-100552380D01*
X128838095Y-123900000D02*
X128742857Y-123852380D01*
X128600000Y-123852380D01*
X128457142Y-123900000D01*
X128361904Y-123995238D01*
X128314285Y-124090476D01*
X128266666Y-124280952D01*
X128266666Y-124423809D01*
X128314285Y-124614285D01*
X128361904Y-124709523D01*
X128457142Y-124804761D01*
X128600000Y-124852380D01*
X128695238Y-124852380D01*
X128838095Y-124804761D01*
X128885714Y-124757142D01*
X128885714Y-124423809D01*
X128695238Y-124423809D01*
X129314285Y-124852380D02*
X129314285Y-123852380D01*
X129885714Y-124852380D01*
X129885714Y-123852380D01*
X130361904Y-124852380D02*
X130361904Y-123852380D01*
X130600000Y-123852380D01*
X130742857Y-123900000D01*
X130838095Y-123995238D01*
X130885714Y-124090476D01*
X130933333Y-124280952D01*
X130933333Y-124423809D01*
X130885714Y-124614285D01*
X130838095Y-124709523D01*
X130742857Y-124804761D01*
X130600000Y-124852380D01*
X130361904Y-124852380D01*
X128214285Y-118871428D02*
X128976190Y-118871428D01*
X128595238Y-119252380D02*
X128595238Y-118490476D01*
X129928571Y-118252380D02*
X129452380Y-118252380D01*
X129404761Y-118728571D01*
X129452380Y-118680952D01*
X129547619Y-118633333D01*
X129785714Y-118633333D01*
X129880952Y-118680952D01*
X129928571Y-118728571D01*
X129976190Y-118823809D01*
X129976190Y-119061904D01*
X129928571Y-119157142D01*
X129880952Y-119204761D01*
X129785714Y-119252380D01*
X129547619Y-119252380D01*
X129452380Y-119204761D01*
X129404761Y-119157142D01*
X130261904Y-118252380D02*
X130595238Y-119252380D01*
X130928571Y-118252380D01*
X121242857Y-116904761D02*
X121385714Y-116952380D01*
X121623809Y-116952380D01*
X121719047Y-116904761D01*
X121766666Y-116857142D01*
X121814285Y-116761904D01*
X121814285Y-116666666D01*
X121766666Y-116571428D01*
X121719047Y-116523809D01*
X121623809Y-116476190D01*
X121433333Y-116428571D01*
X121338095Y-116380952D01*
X121290476Y-116333333D01*
X121242857Y-116238095D01*
X121242857Y-116142857D01*
X121290476Y-116047619D01*
X121338095Y-116000000D01*
X121433333Y-115952380D01*
X121671428Y-115952380D01*
X121814285Y-116000000D01*
X122671428Y-116285714D02*
X122671428Y-116952380D01*
X122242857Y-116285714D02*
X122242857Y-116809523D01*
X122290476Y-116904761D01*
X122385714Y-116952380D01*
X122528571Y-116952380D01*
X122623809Y-116904761D01*
X122671428Y-116857142D01*
X123147619Y-116285714D02*
X123147619Y-117285714D01*
X123147619Y-116333333D02*
X123242857Y-116285714D01*
X123433333Y-116285714D01*
X123528571Y-116333333D01*
X123576190Y-116380952D01*
X123623809Y-116476190D01*
X123623809Y-116761904D01*
X123576190Y-116857142D01*
X123528571Y-116904761D01*
X123433333Y-116952380D01*
X123242857Y-116952380D01*
X123147619Y-116904761D01*
X124052380Y-116285714D02*
X124052380Y-117285714D01*
X124052380Y-116333333D02*
X124147619Y-116285714D01*
X124338095Y-116285714D01*
X124433333Y-116333333D01*
X124480952Y-116380952D01*
X124528571Y-116476190D01*
X124528571Y-116761904D01*
X124480952Y-116857142D01*
X124433333Y-116904761D01*
X124338095Y-116952380D01*
X124147619Y-116952380D01*
X124052380Y-116904761D01*
X125100000Y-116952380D02*
X125004761Y-116904761D01*
X124957142Y-116809523D01*
X124957142Y-115952380D01*
X125385714Y-116285714D02*
X125623809Y-116952380D01*
X125861904Y-116285714D02*
X125623809Y-116952380D01*
X125528571Y-117190476D01*
X125480952Y-117238095D01*
X125385714Y-117285714D01*
X127004761Y-116952380D02*
X127004761Y-115952380D01*
X127480952Y-116285714D02*
X127480952Y-116952380D01*
X127480952Y-116380952D02*
X127528571Y-116333333D01*
X127623809Y-116285714D01*
X127766666Y-116285714D01*
X127861904Y-116333333D01*
X127909523Y-116428571D01*
X127909523Y-116952380D01*
X149766666Y-100304761D02*
X149909523Y-100352380D01*
X150147619Y-100352380D01*
X150242857Y-100304761D01*
X150290476Y-100257142D01*
X150338095Y-100161904D01*
X150338095Y-100066666D01*
X150290476Y-99971428D01*
X150242857Y-99923809D01*
X150147619Y-99876190D01*
X149957142Y-99828571D01*
X149861904Y-99780952D01*
X149814285Y-99733333D01*
X149766666Y-99638095D01*
X149766666Y-99542857D01*
X149814285Y-99447619D01*
X149861904Y-99400000D01*
X149957142Y-99352380D01*
X150195238Y-99352380D01*
X150338095Y-99400000D01*
X150766666Y-99685714D02*
X150766666Y-100685714D01*
X150766666Y-99733333D02*
X150861904Y-99685714D01*
X151052380Y-99685714D01*
X151147619Y-99733333D01*
X151195238Y-99780952D01*
X151242857Y-99876190D01*
X151242857Y-100161904D01*
X151195238Y-100257142D01*
X151147619Y-100304761D01*
X151052380Y-100352380D01*
X150861904Y-100352380D01*
X150766666Y-100304761D01*
X152052380Y-100304761D02*
X151957142Y-100352380D01*
X151766666Y-100352380D01*
X151671428Y-100304761D01*
X151623809Y-100209523D01*
X151623809Y-99828571D01*
X151671428Y-99733333D01*
X151766666Y-99685714D01*
X151957142Y-99685714D01*
X152052380Y-99733333D01*
X152100000Y-99828571D01*
X152100000Y-99923809D01*
X151623809Y-100019047D01*
X152957142Y-100352380D02*
X152957142Y-99828571D01*
X152909523Y-99733333D01*
X152814285Y-99685714D01*
X152623809Y-99685714D01*
X152528571Y-99733333D01*
X152957142Y-100304761D02*
X152861904Y-100352380D01*
X152623809Y-100352380D01*
X152528571Y-100304761D01*
X152480952Y-100209523D01*
X152480952Y-100114285D01*
X152528571Y-100019047D01*
X152623809Y-99971428D01*
X152861904Y-99971428D01*
X152957142Y-99923809D01*
X153433333Y-100352380D02*
X153433333Y-99352380D01*
X153528571Y-99971428D02*
X153814285Y-100352380D01*
X153814285Y-99685714D02*
X153433333Y-100066666D01*
X154623809Y-100304761D02*
X154528571Y-100352380D01*
X154338095Y-100352380D01*
X154242857Y-100304761D01*
X154195238Y-100209523D01*
X154195238Y-99828571D01*
X154242857Y-99733333D01*
X154338095Y-99685714D01*
X154528571Y-99685714D01*
X154623809Y-99733333D01*
X154671428Y-99828571D01*
X154671428Y-99923809D01*
X154195238Y-100019047D01*
X155100000Y-100352380D02*
X155100000Y-99685714D01*
X155100000Y-99876190D02*
X155147619Y-99780952D01*
X155195238Y-99733333D01*
X155290476Y-99685714D01*
X155385714Y-99685714D01*
X156623809Y-100352380D02*
X156528571Y-100304761D01*
X156480952Y-100257142D01*
X156433333Y-100161904D01*
X156433333Y-99876190D01*
X156480952Y-99780952D01*
X156528571Y-99733333D01*
X156623809Y-99685714D01*
X156766666Y-99685714D01*
X156861904Y-99733333D01*
X156909523Y-99780952D01*
X156957142Y-99876190D01*
X156957142Y-100161904D01*
X156909523Y-100257142D01*
X156861904Y-100304761D01*
X156766666Y-100352380D01*
X156623809Y-100352380D01*
X157814285Y-99685714D02*
X157814285Y-100352380D01*
X157385714Y-99685714D02*
X157385714Y-100209523D01*
X157433333Y-100304761D01*
X157528571Y-100352380D01*
X157671428Y-100352380D01*
X157766666Y-100304761D01*
X157814285Y-100257142D01*
X158147619Y-99685714D02*
X158528571Y-99685714D01*
X158290476Y-99352380D02*
X158290476Y-100209523D01*
X158338095Y-100304761D01*
X158433333Y-100352380D01*
X158528571Y-100352380D01*
D10*
X128000000Y-102100000D02*
X116000000Y-102100000D01*
X116000000Y-102100000D02*
X116000000Y-114100000D01*
X116000000Y-114100000D02*
X128000000Y-114100000D01*
X128000000Y-114100000D02*
X128000000Y-102100000D01*
X139600000Y-122510000D02*
X141550000Y-122510000D01*
X139600000Y-122510000D02*
X137650000Y-122510000D01*
X139600000Y-117390000D02*
X141550000Y-117390000D01*
X139600000Y-117390000D02*
X136150000Y-117390000D01*
X134150000Y-107040000D02*
X132250000Y-107040000D01*
X132750000Y-109360000D02*
X134150000Y-109360000D01*
X134810000Y-118037221D02*
X134810000Y-118362779D01*
X133790000Y-118037221D02*
X133790000Y-118362779D01*
X133790000Y-121912779D02*
X133790000Y-121587221D01*
X134810000Y-121912779D02*
X134810000Y-121587221D01*
X131349721Y-120440000D02*
X131675279Y-120440000D01*
X131349721Y-121460000D02*
X131675279Y-121460000D01*
X129990000Y-108362779D02*
X129990000Y-108037221D01*
X131010000Y-108362779D02*
X131010000Y-108037221D01*
X142690000Y-109012779D02*
X142690000Y-108687221D01*
X143710000Y-109012779D02*
X143710000Y-108687221D01*
X139499721Y-104540000D02*
X139825279Y-104540000D01*
X139499721Y-105560000D02*
X139825279Y-105560000D01*
X133437221Y-98690000D02*
X133762779Y-98690000D01*
X133437221Y-99710000D02*
X133762779Y-99710000D01*
X133437221Y-101890000D02*
X133762779Y-101890000D01*
X133437221Y-102910000D02*
X133762779Y-102910000D01*
X133675279Y-96610000D02*
X133349721Y-96610000D01*
X133675279Y-95590000D02*
X133349721Y-95590000D01*
X155555000Y-104075000D02*
X154055000Y-104075000D01*
X154055000Y-104075000D02*
X154055000Y-104345000D01*
X154055000Y-104345000D02*
X151225000Y-104345000D01*
X155555000Y-110975000D02*
X154055000Y-110975000D01*
X154055000Y-110975000D02*
X154055000Y-110705000D01*
X154055000Y-110705000D02*
X152955000Y-110705000D01*
X157470000Y-123000000D02*
X158970000Y-123000000D01*
X158970000Y-123000000D02*
X158970000Y-122730000D01*
X158970000Y-122730000D02*
X161800000Y-122730000D01*
X157470000Y-116100000D02*
X158970000Y-116100000D01*
X158970000Y-116100000D02*
X158970000Y-116370000D01*
X158970000Y-116370000D02*
X160070000Y-116370000D01*
X138120000Y-109360000D02*
X139050000Y-109360000D01*
X141280000Y-109360000D02*
X140350000Y-109360000D01*
X141280000Y-109360000D02*
X141280000Y-107200000D01*
X138120000Y-109360000D02*
X138120000Y-107900000D01*
X149800000Y-99100000D02*
X161800000Y-99100000D01*
X161800000Y-99100000D02*
X161800000Y-90600000D01*
X161800000Y-90600000D02*
X149800000Y-90600000D01*
X149800000Y-90600000D02*
X149800000Y-99100000D01*
X128000000Y-117200000D02*
X116000000Y-117200000D01*
X116000000Y-117200000D02*
X116000000Y-125700000D01*
X116000000Y-125700000D02*
X128000000Y-125700000D01*
X128000000Y-125700000D02*
X128000000Y-117200000D01*
X128000000Y-90850000D02*
X116000000Y-90850000D01*
X116000000Y-90850000D02*
X116000000Y-99350000D01*
X116000000Y-99350000D02*
X128000000Y-99350000D01*
X128000000Y-99350000D02*
X128000000Y-90850000D01*
X142050000Y-101750000D02*
X137050000Y-101750000D01*
X137050000Y-97650000D02*
X137050000Y-101750000D01*
X137050000Y-97650000D02*
X142050000Y-97650000D01*
X142050000Y-101750000D02*
X142050000Y-97650000D01*
X139020820Y-100600000D02*
G75*
G03*
X139020820Y-100600000I-670820J0D01*
G01*
X145612779Y-121410000D02*
X145287221Y-121410000D01*
X145612779Y-120390000D02*
X145287221Y-120390000D01*
X145612779Y-119360000D02*
X145287221Y-119360000D01*
X145612779Y-118340000D02*
X145287221Y-118340000D01*
X137610000Y-115237221D02*
X137610000Y-115562779D01*
X136590000Y-115237221D02*
X136590000Y-115562779D01*
X132410000Y-118037221D02*
X132410000Y-118362779D01*
X131390000Y-118037221D02*
X131390000Y-118362779D01*
X136090000Y-110250279D02*
X136090000Y-109924721D01*
X137110000Y-110250279D02*
X137110000Y-109924721D01*
X136302064Y-94610000D02*
X135097936Y-94610000D01*
X136302064Y-91890000D02*
X135097936Y-91890000D01*
D11*
X116466666Y-100852380D02*
X116466666Y-101566666D01*
X116419047Y-101709523D01*
X116323809Y-101804761D01*
X116180952Y-101852380D01*
X116085714Y-101852380D01*
X116895238Y-100947619D02*
X116942857Y-100900000D01*
X117038095Y-100852380D01*
X117276190Y-100852380D01*
X117371428Y-100900000D01*
X117419047Y-100947619D01*
X117466666Y-101042857D01*
X117466666Y-101138095D01*
X117419047Y-101280952D01*
X116847619Y-101852380D01*
X117466666Y-101852380D01*
X138838095Y-116002380D02*
X138838095Y-116811904D01*
X138885714Y-116907142D01*
X138933333Y-116954761D01*
X139028571Y-117002380D01*
X139219047Y-117002380D01*
X139314285Y-116954761D01*
X139361904Y-116907142D01*
X139409523Y-116811904D01*
X139409523Y-116002380D01*
X139838095Y-116097619D02*
X139885714Y-116050000D01*
X139980952Y-116002380D01*
X140219047Y-116002380D01*
X140314285Y-116050000D01*
X140361904Y-116097619D01*
X140409523Y-116192857D01*
X140409523Y-116288095D01*
X140361904Y-116430952D01*
X139790476Y-117002380D01*
X140409523Y-117002380D01*
X132688095Y-105652380D02*
X132688095Y-106461904D01*
X132735714Y-106557142D01*
X132783333Y-106604761D01*
X132878571Y-106652380D01*
X133069047Y-106652380D01*
X133164285Y-106604761D01*
X133211904Y-106557142D01*
X133259523Y-106461904D01*
X133259523Y-105652380D01*
X134259523Y-106652380D02*
X133688095Y-106652380D01*
X133973809Y-106652380D02*
X133973809Y-105652380D01*
X133878571Y-105795238D01*
X133783333Y-105890476D01*
X133688095Y-105938095D01*
X134752380Y-115166666D02*
X134276190Y-115500000D01*
X134752380Y-115738095D02*
X133752380Y-115738095D01*
X133752380Y-115357142D01*
X133800000Y-115261904D01*
X133847619Y-115214285D01*
X133942857Y-115166666D01*
X134085714Y-115166666D01*
X134180952Y-115214285D01*
X134228571Y-115261904D01*
X134276190Y-115357142D01*
X134276190Y-115738095D01*
X134752380Y-114690476D02*
X134752380Y-114500000D01*
X134704761Y-114404761D01*
X134657142Y-114357142D01*
X134514285Y-114261904D01*
X134323809Y-114214285D01*
X133942857Y-114214285D01*
X133847619Y-114261904D01*
X133800000Y-114309523D01*
X133752380Y-114404761D01*
X133752380Y-114595238D01*
X133800000Y-114690476D01*
X133847619Y-114738095D01*
X133942857Y-114785714D01*
X134180952Y-114785714D01*
X134276190Y-114738095D01*
X134323809Y-114690476D01*
X134371428Y-114595238D01*
X134371428Y-114404761D01*
X134323809Y-114309523D01*
X134276190Y-114261904D01*
X134180952Y-114214285D01*
X133322380Y-123066666D02*
X132846190Y-123400000D01*
X133322380Y-123638095D02*
X132322380Y-123638095D01*
X132322380Y-123257142D01*
X132370000Y-123161904D01*
X132417619Y-123114285D01*
X132512857Y-123066666D01*
X132655714Y-123066666D01*
X132750952Y-123114285D01*
X132798571Y-123161904D01*
X132846190Y-123257142D01*
X132846190Y-123638095D01*
X132750952Y-122495238D02*
X132703333Y-122590476D01*
X132655714Y-122638095D01*
X132560476Y-122685714D01*
X132512857Y-122685714D01*
X132417619Y-122638095D01*
X132370000Y-122590476D01*
X132322380Y-122495238D01*
X132322380Y-122304761D01*
X132370000Y-122209523D01*
X132417619Y-122161904D01*
X132512857Y-122114285D01*
X132560476Y-122114285D01*
X132655714Y-122161904D01*
X132703333Y-122209523D01*
X132750952Y-122304761D01*
X132750952Y-122495238D01*
X132798571Y-122590476D01*
X132846190Y-122638095D01*
X132941428Y-122685714D01*
X133131904Y-122685714D01*
X133227142Y-122638095D01*
X133274761Y-122590476D01*
X133322380Y-122495238D01*
X133322380Y-122304761D01*
X133274761Y-122209523D01*
X133227142Y-122161904D01*
X133131904Y-122114285D01*
X132941428Y-122114285D01*
X132846190Y-122161904D01*
X132798571Y-122209523D01*
X132750952Y-122304761D01*
X130633333Y-122952380D02*
X130300000Y-122476190D01*
X130061904Y-122952380D02*
X130061904Y-121952380D01*
X130442857Y-121952380D01*
X130538095Y-122000000D01*
X130585714Y-122047619D01*
X130633333Y-122142857D01*
X130633333Y-122285714D01*
X130585714Y-122380952D01*
X130538095Y-122428571D01*
X130442857Y-122476190D01*
X130061904Y-122476190D01*
X130966666Y-121952380D02*
X131633333Y-121952380D01*
X131204761Y-122952380D01*
X130952380Y-105866666D02*
X130476190Y-106200000D01*
X130952380Y-106438095D02*
X129952380Y-106438095D01*
X129952380Y-106057142D01*
X130000000Y-105961904D01*
X130047619Y-105914285D01*
X130142857Y-105866666D01*
X130285714Y-105866666D01*
X130380952Y-105914285D01*
X130428571Y-105961904D01*
X130476190Y-106057142D01*
X130476190Y-106438095D01*
X129952380Y-105009523D02*
X129952380Y-105200000D01*
X130000000Y-105295238D01*
X130047619Y-105342857D01*
X130190476Y-105438095D01*
X130380952Y-105485714D01*
X130761904Y-105485714D01*
X130857142Y-105438095D01*
X130904761Y-105390476D01*
X130952380Y-105295238D01*
X130952380Y-105104761D01*
X130904761Y-105009523D01*
X130857142Y-104961904D01*
X130761904Y-104914285D01*
X130523809Y-104914285D01*
X130428571Y-104961904D01*
X130380952Y-105009523D01*
X130333333Y-105104761D01*
X130333333Y-105295238D01*
X130380952Y-105390476D01*
X130428571Y-105438095D01*
X130523809Y-105485714D01*
X145352380Y-108966666D02*
X144876190Y-109300000D01*
X145352380Y-109538095D02*
X144352380Y-109538095D01*
X144352380Y-109157142D01*
X144400000Y-109061904D01*
X144447619Y-109014285D01*
X144542857Y-108966666D01*
X144685714Y-108966666D01*
X144780952Y-109014285D01*
X144828571Y-109061904D01*
X144876190Y-109157142D01*
X144876190Y-109538095D01*
X144352380Y-108061904D02*
X144352380Y-108538095D01*
X144828571Y-108585714D01*
X144780952Y-108538095D01*
X144733333Y-108442857D01*
X144733333Y-108204761D01*
X144780952Y-108109523D01*
X144828571Y-108061904D01*
X144923809Y-108014285D01*
X145161904Y-108014285D01*
X145257142Y-108061904D01*
X145304761Y-108109523D01*
X145352380Y-108204761D01*
X145352380Y-108442857D01*
X145304761Y-108538095D01*
X145257142Y-108585714D01*
X142133333Y-105552380D02*
X141800000Y-105076190D01*
X141561904Y-105552380D02*
X141561904Y-104552380D01*
X141942857Y-104552380D01*
X142038095Y-104600000D01*
X142085714Y-104647619D01*
X142133333Y-104742857D01*
X142133333Y-104885714D01*
X142085714Y-104980952D01*
X142038095Y-105028571D01*
X141942857Y-105076190D01*
X141561904Y-105076190D01*
X142990476Y-104885714D02*
X142990476Y-105552380D01*
X142752380Y-104504761D02*
X142514285Y-105219047D01*
X143133333Y-105219047D01*
X133433333Y-98252380D02*
X133100000Y-97776190D01*
X132861904Y-98252380D02*
X132861904Y-97252380D01*
X133242857Y-97252380D01*
X133338095Y-97300000D01*
X133385714Y-97347619D01*
X133433333Y-97442857D01*
X133433333Y-97585714D01*
X133385714Y-97680952D01*
X133338095Y-97728571D01*
X133242857Y-97776190D01*
X132861904Y-97776190D01*
X133766666Y-97252380D02*
X134385714Y-97252380D01*
X134052380Y-97633333D01*
X134195238Y-97633333D01*
X134290476Y-97680952D01*
X134338095Y-97728571D01*
X134385714Y-97823809D01*
X134385714Y-98061904D01*
X134338095Y-98157142D01*
X134290476Y-98204761D01*
X134195238Y-98252380D01*
X133909523Y-98252380D01*
X133814285Y-98204761D01*
X133766666Y-98157142D01*
X133433333Y-101422380D02*
X133100000Y-100946190D01*
X132861904Y-101422380D02*
X132861904Y-100422380D01*
X133242857Y-100422380D01*
X133338095Y-100470000D01*
X133385714Y-100517619D01*
X133433333Y-100612857D01*
X133433333Y-100755714D01*
X133385714Y-100850952D01*
X133338095Y-100898571D01*
X133242857Y-100946190D01*
X132861904Y-100946190D01*
X133814285Y-100517619D02*
X133861904Y-100470000D01*
X133957142Y-100422380D01*
X134195238Y-100422380D01*
X134290476Y-100470000D01*
X134338095Y-100517619D01*
X134385714Y-100612857D01*
X134385714Y-100708095D01*
X134338095Y-100850952D01*
X133766666Y-101422380D01*
X134385714Y-101422380D01*
X136033333Y-96552380D02*
X135700000Y-96076190D01*
X135461904Y-96552380D02*
X135461904Y-95552380D01*
X135842857Y-95552380D01*
X135938095Y-95600000D01*
X135985714Y-95647619D01*
X136033333Y-95742857D01*
X136033333Y-95885714D01*
X135985714Y-95980952D01*
X135938095Y-96028571D01*
X135842857Y-96076190D01*
X135461904Y-96076190D01*
X136985714Y-96552380D02*
X136414285Y-96552380D01*
X136700000Y-96552380D02*
X136700000Y-95552380D01*
X136604761Y-95695238D01*
X136509523Y-95790476D01*
X136414285Y-95838095D01*
X162004761Y-112347619D02*
X161909523Y-112300000D01*
X161814285Y-112204761D01*
X161671428Y-112061904D01*
X161576190Y-112014285D01*
X161480952Y-112014285D01*
X161528571Y-112252380D02*
X161433333Y-112204761D01*
X161338095Y-112109523D01*
X161290476Y-111919047D01*
X161290476Y-111585714D01*
X161338095Y-111395238D01*
X161433333Y-111300000D01*
X161528571Y-111252380D01*
X161719047Y-111252380D01*
X161814285Y-111300000D01*
X161909523Y-111395238D01*
X161957142Y-111585714D01*
X161957142Y-111919047D01*
X161909523Y-112109523D01*
X161814285Y-112204761D01*
X161719047Y-112252380D01*
X161528571Y-112252380D01*
X162290476Y-111252380D02*
X162909523Y-111252380D01*
X162576190Y-111633333D01*
X162719047Y-111633333D01*
X162814285Y-111680952D01*
X162861904Y-111728571D01*
X162909523Y-111823809D01*
X162909523Y-112061904D01*
X162861904Y-112157142D01*
X162814285Y-112204761D01*
X162719047Y-112252380D01*
X162433333Y-112252380D01*
X162338095Y-112204761D01*
X162290476Y-112157142D01*
X151604761Y-115847619D02*
X151509523Y-115800000D01*
X151414285Y-115704761D01*
X151271428Y-115561904D01*
X151176190Y-115514285D01*
X151080952Y-115514285D01*
X151128571Y-115752380D02*
X151033333Y-115704761D01*
X150938095Y-115609523D01*
X150890476Y-115419047D01*
X150890476Y-115085714D01*
X150938095Y-114895238D01*
X151033333Y-114800000D01*
X151128571Y-114752380D01*
X151319047Y-114752380D01*
X151414285Y-114800000D01*
X151509523Y-114895238D01*
X151557142Y-115085714D01*
X151557142Y-115419047D01*
X151509523Y-115609523D01*
X151414285Y-115704761D01*
X151319047Y-115752380D01*
X151128571Y-115752380D01*
X151938095Y-114847619D02*
X151985714Y-114800000D01*
X152080952Y-114752380D01*
X152319047Y-114752380D01*
X152414285Y-114800000D01*
X152461904Y-114847619D01*
X152509523Y-114942857D01*
X152509523Y-115038095D01*
X152461904Y-115180952D01*
X151890476Y-115752380D01*
X152509523Y-115752380D01*
X140704761Y-111647619D02*
X140609523Y-111600000D01*
X140514285Y-111504761D01*
X140371428Y-111361904D01*
X140276190Y-111314285D01*
X140180952Y-111314285D01*
X140228571Y-111552380D02*
X140133333Y-111504761D01*
X140038095Y-111409523D01*
X139990476Y-111219047D01*
X139990476Y-110885714D01*
X140038095Y-110695238D01*
X140133333Y-110600000D01*
X140228571Y-110552380D01*
X140419047Y-110552380D01*
X140514285Y-110600000D01*
X140609523Y-110695238D01*
X140657142Y-110885714D01*
X140657142Y-111219047D01*
X140609523Y-111409523D01*
X140514285Y-111504761D01*
X140419047Y-111552380D01*
X140228571Y-111552380D01*
X141609523Y-111552380D02*
X141038095Y-111552380D01*
X141323809Y-111552380D02*
X141323809Y-110552380D01*
X141228571Y-110695238D01*
X141133333Y-110790476D01*
X141038095Y-110838095D01*
X160766666Y-99352380D02*
X160766666Y-100066666D01*
X160719047Y-100209523D01*
X160623809Y-100304761D01*
X160480952Y-100352380D01*
X160385714Y-100352380D01*
X161671428Y-99685714D02*
X161671428Y-100352380D01*
X161433333Y-99304761D02*
X161195238Y-100019047D01*
X161814285Y-100019047D01*
X116366666Y-115952380D02*
X116366666Y-116666666D01*
X116319047Y-116809523D01*
X116223809Y-116904761D01*
X116080952Y-116952380D01*
X115985714Y-116952380D01*
X116747619Y-115952380D02*
X117366666Y-115952380D01*
X117033333Y-116333333D01*
X117176190Y-116333333D01*
X117271428Y-116380952D01*
X117319047Y-116428571D01*
X117366666Y-116523809D01*
X117366666Y-116761904D01*
X117319047Y-116857142D01*
X117271428Y-116904761D01*
X117176190Y-116952380D01*
X116890476Y-116952380D01*
X116795238Y-116904761D01*
X116747619Y-116857142D01*
X120266666Y-99552380D02*
X120266666Y-100266666D01*
X120219047Y-100409523D01*
X120123809Y-100504761D01*
X119980952Y-100552380D01*
X119885714Y-100552380D01*
X121266666Y-100552380D02*
X120695238Y-100552380D01*
X120980952Y-100552380D02*
X120980952Y-99552380D01*
X120885714Y-99695238D01*
X120790476Y-99790476D01*
X120695238Y-99838095D01*
X142561904Y-98652380D02*
X142561904Y-97652380D01*
X142800000Y-97652380D01*
X142942857Y-97700000D01*
X143038095Y-97795238D01*
X143085714Y-97890476D01*
X143133333Y-98080952D01*
X143133333Y-98223809D01*
X143085714Y-98414285D01*
X143038095Y-98509523D01*
X142942857Y-98604761D01*
X142800000Y-98652380D01*
X142561904Y-98652380D01*
X144085714Y-98652380D02*
X143514285Y-98652380D01*
X143800000Y-98652380D02*
X143800000Y-97652380D01*
X143704761Y-97795238D01*
X143609523Y-97890476D01*
X143514285Y-97938095D01*
X144733333Y-122757142D02*
X144685714Y-122804761D01*
X144542857Y-122852380D01*
X144447619Y-122852380D01*
X144304761Y-122804761D01*
X144209523Y-122709523D01*
X144161904Y-122614285D01*
X144114285Y-122423809D01*
X144114285Y-122280952D01*
X144161904Y-122090476D01*
X144209523Y-121995238D01*
X144304761Y-121900000D01*
X144447619Y-121852380D01*
X144542857Y-121852380D01*
X144685714Y-121900000D01*
X144733333Y-121947619D01*
X145590476Y-121852380D02*
X145400000Y-121852380D01*
X145304761Y-121900000D01*
X145257142Y-121947619D01*
X145161904Y-122090476D01*
X145114285Y-122280952D01*
X145114285Y-122661904D01*
X145161904Y-122757142D01*
X145209523Y-122804761D01*
X145304761Y-122852380D01*
X145495238Y-122852380D01*
X145590476Y-122804761D01*
X145638095Y-122757142D01*
X145685714Y-122661904D01*
X145685714Y-122423809D01*
X145638095Y-122328571D01*
X145590476Y-122280952D01*
X145495238Y-122233333D01*
X145304761Y-122233333D01*
X145209523Y-122280952D01*
X145161904Y-122328571D01*
X145114285Y-122423809D01*
X144633333Y-117757142D02*
X144585714Y-117804761D01*
X144442857Y-117852380D01*
X144347619Y-117852380D01*
X144204761Y-117804761D01*
X144109523Y-117709523D01*
X144061904Y-117614285D01*
X144014285Y-117423809D01*
X144014285Y-117280952D01*
X144061904Y-117090476D01*
X144109523Y-116995238D01*
X144204761Y-116900000D01*
X144347619Y-116852380D01*
X144442857Y-116852380D01*
X144585714Y-116900000D01*
X144633333Y-116947619D01*
X145538095Y-116852380D02*
X145061904Y-116852380D01*
X145014285Y-117328571D01*
X145061904Y-117280952D01*
X145157142Y-117233333D01*
X145395238Y-117233333D01*
X145490476Y-117280952D01*
X145538095Y-117328571D01*
X145585714Y-117423809D01*
X145585714Y-117661904D01*
X145538095Y-117757142D01*
X145490476Y-117804761D01*
X145395238Y-117852380D01*
X145157142Y-117852380D01*
X145061904Y-117804761D01*
X145014285Y-117757142D01*
X136057142Y-115566666D02*
X136104761Y-115614285D01*
X136152380Y-115757142D01*
X136152380Y-115852380D01*
X136104761Y-115995238D01*
X136009523Y-116090476D01*
X135914285Y-116138095D01*
X135723809Y-116185714D01*
X135580952Y-116185714D01*
X135390476Y-116138095D01*
X135295238Y-116090476D01*
X135200000Y-115995238D01*
X135152380Y-115852380D01*
X135152380Y-115757142D01*
X135200000Y-115614285D01*
X135247619Y-115566666D01*
X135485714Y-114709523D02*
X136152380Y-114709523D01*
X135104761Y-114947619D02*
X135819047Y-115185714D01*
X135819047Y-114566666D01*
X132257142Y-115166666D02*
X132304761Y-115214285D01*
X132352380Y-115357142D01*
X132352380Y-115452380D01*
X132304761Y-115595238D01*
X132209523Y-115690476D01*
X132114285Y-115738095D01*
X131923809Y-115785714D01*
X131780952Y-115785714D01*
X131590476Y-115738095D01*
X131495238Y-115690476D01*
X131400000Y-115595238D01*
X131352380Y-115452380D01*
X131352380Y-115357142D01*
X131400000Y-115214285D01*
X131447619Y-115166666D01*
X131352380Y-114833333D02*
X131352380Y-114214285D01*
X131733333Y-114547619D01*
X131733333Y-114404761D01*
X131780952Y-114309523D01*
X131828571Y-114261904D01*
X131923809Y-114214285D01*
X132161904Y-114214285D01*
X132257142Y-114261904D01*
X132304761Y-114309523D01*
X132352380Y-114404761D01*
X132352380Y-114690476D01*
X132304761Y-114785714D01*
X132257142Y-114833333D01*
X135357142Y-110966666D02*
X135404761Y-111014285D01*
X135452380Y-111157142D01*
X135452380Y-111252380D01*
X135404761Y-111395238D01*
X135309523Y-111490476D01*
X135214285Y-111538095D01*
X135023809Y-111585714D01*
X134880952Y-111585714D01*
X134690476Y-111538095D01*
X134595238Y-111490476D01*
X134500000Y-111395238D01*
X134452380Y-111252380D01*
X134452380Y-111157142D01*
X134500000Y-111014285D01*
X134547619Y-110966666D01*
X134547619Y-110585714D02*
X134500000Y-110538095D01*
X134452380Y-110442857D01*
X134452380Y-110204761D01*
X134500000Y-110109523D01*
X134547619Y-110061904D01*
X134642857Y-110014285D01*
X134738095Y-110014285D01*
X134880952Y-110061904D01*
X135452380Y-110633333D01*
X135452380Y-110014285D01*
X132033333Y-93557142D02*
X131985714Y-93604761D01*
X131842857Y-93652380D01*
X131747619Y-93652380D01*
X131604761Y-93604761D01*
X131509523Y-93509523D01*
X131461904Y-93414285D01*
X131414285Y-93223809D01*
X131414285Y-93080952D01*
X131461904Y-92890476D01*
X131509523Y-92795238D01*
X131604761Y-92700000D01*
X131747619Y-92652380D01*
X131842857Y-92652380D01*
X131985714Y-92700000D01*
X132033333Y-92747619D01*
X132985714Y-93652380D02*
X132414285Y-93652380D01*
X132700000Y-93652380D02*
X132700000Y-92652380D01*
X132604761Y-92795238D01*
X132509523Y-92890476D01*
X132414285Y-92938095D01*
M02*
